<?xml version="1.0" encoding="ASCII"?>
<eu.petur:Trace xmi:version="2.0" xmlns:xmi="http://www.omg.org/XMI" xmlns:xsi="http://www.w3.org/2001/XMLSchema-instance" xmlns:ecore="http://www.eclipse.org/emf/2002/Ecore" xmlns:eu.petur="http://www.petur.eu/trace" xmlns:workers="http://workers.petur.ingi.dk/1.0">
  <lifelines object="//@setting/@objects.9" objectClass="WorkerImpl">
    <messageOccurrences type="RECEIVE"/>
    <messageOccurrences timestamp="1"/>
    <messageOccurrences timestamp="12" type="RECEIVE"/>
    <messageOccurrences timestamp="13" type="SEND_RETURN"/>
    <messageOccurrences timestamp="16" type="RECEIVE_RETURN"/>
    <messageOccurrences timestamp="17" type="SEND_RETURN"/>
    <messageOccurrences timestamp="20" type="RECEIVE"/>
    <messageOccurrences timestamp="21"/>
    <messageOccurrences timestamp="24" type="RECEIVE_RETURN"/>
    <messageOccurrences timestamp="25" type="SEND_RETURN"/>
  </lifelines>
  <lifelines object="//@setting/@objects.0" objectClass="CarImpl">
    <messageOccurrences timestamp="2" type="RECEIVE"/>
    <messageOccurrences timestamp="3"/>
    <messageOccurrences timestamp="6" type="RECEIVE"/>
    <messageOccurrences timestamp="7" type="SEND_RETURN"/>
    <messageOccurrences timestamp="10" type="RECEIVE_RETURN"/>
    <messageOccurrences timestamp="11"/>
    <messageOccurrences timestamp="14" type="RECEIVE_RETURN"/>
    <messageOccurrences timestamp="15" type="SEND_RETURN"/>
  </lifelines>
  <lifelines object="//@setting/@objects.8" objectClass="WorkerImpl">
    <messageOccurrences timestamp="4" type="RECEIVE"/>
    <messageOccurrences timestamp="5"/>
    <messageOccurrences timestamp="8" type="RECEIVE_RETURN"/>
    <messageOccurrences timestamp="9" type="SEND_RETURN"/>
  </lifelines>
  <lifelines object="//@setting/@objects.5" objectClass="JobImpl">
    <messageOccurrences timestamp="18" type="RECEIVE"/>
    <messageOccurrences timestamp="19"/>
    <messageOccurrences timestamp="22" type="RECEIVE"/>
    <messageOccurrences timestamp="23" type="SEND_RETURN"/>
    <messageOccurrences timestamp="26" type="RECEIVE_RETURN"/>
    <messageOccurrences timestamp="27" type="SEND_RETURN"/>
    <messageOccurrences timestamp="28" type="RECEIVE"/>
    <messageOccurrences timestamp="29" type="SEND_RETURN"/>
  </lifelines>
  <setting xsi:type="workers:Setting">
    <objects xsi:type="workers:Car" passenger="//@setting/@objects.8 //@setting/@objects.9" state="WORK"/>
    <objects xsi:type="workers:Car" passenger="//@setting/@objects.6 //@setting/@objects.7"/>
    <objects xsi:type="workers:Job" needed="//@setting/@objects.6 //@setting/@objects.7 //@setting/@objects.8 //@setting/@objects.9"/>
    <objects xsi:type="workers:Job" needed="//@setting/@objects.6 //@setting/@objects.7"/>
    <objects xsi:type="workers:Job" needed="//@setting/@objects.6 //@setting/@objects.8 //@setting/@objects.9"/>
    <objects xsi:type="workers:Job" needed="//@setting/@objects.9" state="DONE"/>
    <objects xsi:type="workers:Worker" car="//@setting/@objects.1" assigned="//@setting/@objects.3 //@setting/@objects.2 //@setting/@objects.4"/>
    <objects xsi:type="workers:Worker" car="//@setting/@objects.1" assigned="//@setting/@objects.3 //@setting/@objects.2"/>
    <objects xsi:type="workers:Worker" car="//@setting/@objects.0" assigned="//@setting/@objects.2 //@setting/@objects.4" state="WORK"/>
    <objects xsi:type="workers:Worker" car="//@setting/@objects.0" assigned="//@setting/@objects.5 //@setting/@objects.2 //@setting/@objects.4" state="WORK"/>
    <objects xsi:type="ecore:EFactory"/>
  </setting>
  <messages target="//@lifelines.0/@messageOccurrences.0" payload="void arrive()"/>
  <messages source="//@lifelines.0/@messageOccurrences.1" target="//@lifelines.1/@messageOccurrences.0" payload="void arrive()"/>
  <messages source="//@lifelines.1/@messageOccurrences.1" target="//@lifelines.2/@messageOccurrences.0" payload="void arrive()"/>
  <messages source="//@lifelines.2/@messageOccurrences.1" target="//@lifelines.1/@messageOccurrences.2" payload="void arrive()"/>
  <messages source="//@lifelines.1/@messageOccurrences.3" target="//@lifelines.2/@messageOccurrences.2" payload="void arrive()"/>
  <messages source="//@lifelines.2/@messageOccurrences.3" target="//@lifelines.1/@messageOccurrences.4" payload="void arrive()"/>
  <messages source="//@lifelines.1/@messageOccurrences.5" target="//@lifelines.0/@messageOccurrences.2" payload="void arrive()"/>
  <messages source="//@lifelines.0/@messageOccurrences.3" target="//@lifelines.1/@messageOccurrences.6" payload="void arrive()"/>
  <messages source="//@lifelines.1/@messageOccurrences.7" target="//@lifelines.0/@messageOccurrences.4" payload="void arrive()"/>
  <messages source="//@lifelines.0/@messageOccurrences.5" payload="void arrive()"/>
  <messages target="//@lifelines.3/@messageOccurrences.0" payload="void doJob()"/>
  <messages source="//@lifelines.3/@messageOccurrences.1" target="//@lifelines.0/@messageOccurrences.6" payload="void doJob(Job job)">
    <parameters name="job">
      <value objectValues="//@setting/@objects.5"/>
    </parameters>
  </messages>
  <messages source="//@lifelines.0/@messageOccurrences.7" target="//@lifelines.3/@messageOccurrences.2" payload="void doJob()"/>
  <messages source="//@lifelines.3/@messageOccurrences.3" target="//@lifelines.0/@messageOccurrences.8" payload="void doJob()"/>
  <messages source="//@lifelines.0/@messageOccurrences.9" target="//@lifelines.3/@messageOccurrences.4" payload="void doJob(Job job)">
    <parameters name="job">
      <value objectValues="//@setting/@objects.5"/>
    </parameters>
  </messages>
  <messages source="//@lifelines.3/@messageOccurrences.5" payload="void doJob()"/>
  <messages target="//@lifelines.3/@messageOccurrences.6" payload="void doJob()"/>
  <messages source="//@lifelines.3/@messageOccurrences.7" payload="void doJob()"/>
</eu.petur:Trace>
