<?xml version="1.0" encoding="ASCII"?>
<eu.petur:Trace xmi:version="2.0" xmlns:xmi="http://www.omg.org/XMI" xmlns:xsi="http://www.w3.org/2001/XMLSchema-instance" xmlns:ecore="http://www.eclipse.org/emf/2002/Ecore" xmlns:eu.petur="http://www.petur.eu/trace" xmlns:workers="http://workers.petur.ingi.dk/1.0">
  <lifelines object="//@setting/@objects.0" objectClass="CarImpl">
    <messageOccurrences type="RECEIVE"/>
    <messageOccurrences timestamp="1"/>
    <messageOccurrences timestamp="4" type="RECEIVE"/>
    <messageOccurrences timestamp="5" type="SEND_RETURN"/>
    <messageOccurrences timestamp="8" type="RECEIVE_RETURN"/>
    <messageOccurrences timestamp="9"/>
    <messageOccurrences timestamp="12" type="RECEIVE"/>
    <messageOccurrences timestamp="13" type="SEND_RETURN"/>
    <messageOccurrences timestamp="16" type="RECEIVE_RETURN"/>
    <messageOccurrences timestamp="17" type="SEND_RETURN"/>
    <messageOccurrences timestamp="18" type="RECEIVE"/>
    <messageOccurrences timestamp="19"/>
    <messageOccurrences timestamp="22" type="RECEIVE"/>
    <messageOccurrences timestamp="23" type="SEND_RETURN"/>
    <messageOccurrences timestamp="26" type="RECEIVE_RETURN"/>
    <messageOccurrences timestamp="27"/>
    <messageOccurrences timestamp="30" type="RECEIVE"/>
    <messageOccurrences timestamp="31" type="SEND_RETURN"/>
    <messageOccurrences timestamp="34" type="RECEIVE_RETURN"/>
    <messageOccurrences timestamp="35" type="SEND_RETURN"/>
    <messageOccurrences timestamp="36" type="RECEIVE"/>
    <messageOccurrences timestamp="37"/>
    <messageOccurrences timestamp="40" type="RECEIVE"/>
    <messageOccurrences timestamp="41" type="SEND_RETURN"/>
    <messageOccurrences timestamp="44" type="RECEIVE_RETURN"/>
    <messageOccurrences timestamp="45"/>
    <messageOccurrences timestamp="48" type="RECEIVE"/>
    <messageOccurrences timestamp="49" type="SEND_RETURN"/>
    <messageOccurrences timestamp="52" type="RECEIVE_RETURN"/>
    <messageOccurrences timestamp="53" type="SEND_RETURN"/>
    <messageOccurrences timestamp="54" type="RECEIVE"/>
    <messageOccurrences timestamp="55"/>
    <messageOccurrences timestamp="58" type="RECEIVE"/>
    <messageOccurrences timestamp="59" type="SEND_RETURN"/>
    <messageOccurrences timestamp="62" type="RECEIVE_RETURN"/>
    <messageOccurrences timestamp="63"/>
    <messageOccurrences timestamp="66" type="RECEIVE"/>
    <messageOccurrences timestamp="67" type="SEND_RETURN"/>
    <messageOccurrences timestamp="70" type="RECEIVE_RETURN"/>
    <messageOccurrences timestamp="71" type="SEND_RETURN"/>
  </lifelines>
  <lifelines object="//@setting/@objects.8" objectClass="WorkerImpl">
    <messageOccurrences timestamp="2" type="RECEIVE"/>
    <messageOccurrences timestamp="3"/>
    <messageOccurrences timestamp="6" type="RECEIVE_RETURN"/>
    <messageOccurrences timestamp="7" type="SEND_RETURN"/>
    <messageOccurrences timestamp="20" type="RECEIVE"/>
    <messageOccurrences timestamp="21"/>
    <messageOccurrences timestamp="24" type="RECEIVE_RETURN"/>
    <messageOccurrences timestamp="25" type="SEND_RETURN"/>
    <messageOccurrences timestamp="38" type="RECEIVE"/>
    <messageOccurrences timestamp="39"/>
    <messageOccurrences timestamp="42" type="RECEIVE_RETURN"/>
    <messageOccurrences timestamp="43" type="SEND_RETURN"/>
    <messageOccurrences timestamp="56" type="RECEIVE"/>
    <messageOccurrences timestamp="57"/>
    <messageOccurrences timestamp="60" type="RECEIVE_RETURN"/>
    <messageOccurrences timestamp="61" type="SEND_RETURN"/>
  </lifelines>
  <lifelines object="//@setting/@objects.9" objectClass="WorkerImpl">
    <messageOccurrences timestamp="10" type="RECEIVE"/>
    <messageOccurrences timestamp="11"/>
    <messageOccurrences timestamp="14" type="RECEIVE_RETURN"/>
    <messageOccurrences timestamp="15" type="SEND_RETURN"/>
    <messageOccurrences timestamp="28" type="RECEIVE"/>
    <messageOccurrences timestamp="29"/>
    <messageOccurrences timestamp="32" type="RECEIVE_RETURN"/>
    <messageOccurrences timestamp="33" type="SEND_RETURN"/>
    <messageOccurrences timestamp="46" type="RECEIVE"/>
    <messageOccurrences timestamp="47"/>
    <messageOccurrences timestamp="50" type="RECEIVE_RETURN"/>
    <messageOccurrences timestamp="51" type="SEND_RETURN"/>
    <messageOccurrences timestamp="64" type="RECEIVE"/>
    <messageOccurrences timestamp="65"/>
    <messageOccurrences timestamp="68" type="RECEIVE_RETURN"/>
    <messageOccurrences timestamp="69" type="SEND_RETURN"/>
  </lifelines>
  <setting xsi:type="workers:Setting">
    <objects xsi:type="workers:Car" passenger="//@setting/@objects.8 //@setting/@objects.9"/>
    <objects xsi:type="workers:Car" passenger="//@setting/@objects.6 //@setting/@objects.7"/>
    <objects xsi:type="workers:Job" needed="//@setting/@objects.6 //@setting/@objects.7 //@setting/@objects.8 //@setting/@objects.9"/>
    <objects xsi:type="workers:Job" needed="//@setting/@objects.6 //@setting/@objects.7"/>
    <objects xsi:type="workers:Job" needed="//@setting/@objects.6 //@setting/@objects.8 //@setting/@objects.9"/>
    <objects xsi:type="workers:Job" needed="//@setting/@objects.9"/>
    <objects xsi:type="workers:Worker" car="//@setting/@objects.1" assigned="//@setting/@objects.3 //@setting/@objects.2 //@setting/@objects.4"/>
    <objects xsi:type="workers:Worker" car="//@setting/@objects.1" assigned="//@setting/@objects.3 //@setting/@objects.2"/>
    <objects xsi:type="workers:Worker" car="//@setting/@objects.0" assigned="//@setting/@objects.2 //@setting/@objects.4"/>
    <objects xsi:type="workers:Worker" car="//@setting/@objects.0" assigned="//@setting/@objects.5 //@setting/@objects.2 //@setting/@objects.4"/>
    <objects xsi:type="ecore:EFactory"/>
  </setting>
  <messages target="//@lifelines.0/@messageOccurrences.0" payload="void arrive()"/>
  <messages source="//@lifelines.0/@messageOccurrences.1" target="//@lifelines.1/@messageOccurrences.0" payload="void arrive()"/>
  <messages source="//@lifelines.1/@messageOccurrences.1" target="//@lifelines.0/@messageOccurrences.2" payload="void arrive()"/>
  <messages source="//@lifelines.0/@messageOccurrences.3" target="//@lifelines.1/@messageOccurrences.2" payload="void arrive()"/>
  <messages source="//@lifelines.1/@messageOccurrences.3" target="//@lifelines.0/@messageOccurrences.4" payload="void arrive()"/>
  <messages source="//@lifelines.0/@messageOccurrences.5" target="//@lifelines.2/@messageOccurrences.0" payload="void arrive()"/>
  <messages source="//@lifelines.2/@messageOccurrences.1" target="//@lifelines.0/@messageOccurrences.6" payload="void arrive()"/>
  <messages source="//@lifelines.0/@messageOccurrences.7" target="//@lifelines.2/@messageOccurrences.2" payload="void arrive()"/>
  <messages source="//@lifelines.2/@messageOccurrences.3" target="//@lifelines.0/@messageOccurrences.8" payload="void arrive()"/>
  <messages source="//@lifelines.0/@messageOccurrences.9" payload="void arrive()"/>
  <messages target="//@lifelines.0/@messageOccurrences.10" payload="void depart()"/>
  <messages source="//@lifelines.0/@messageOccurrences.11" target="//@lifelines.1/@messageOccurrences.4" payload="void depart()"/>
  <messages source="//@lifelines.1/@messageOccurrences.5" target="//@lifelines.0/@messageOccurrences.12" payload="void depart()"/>
  <messages source="//@lifelines.0/@messageOccurrences.13" target="//@lifelines.1/@messageOccurrences.6" payload="void depart()"/>
  <messages source="//@lifelines.1/@messageOccurrences.7" target="//@lifelines.0/@messageOccurrences.14" payload="void depart()"/>
  <messages source="//@lifelines.0/@messageOccurrences.15" target="//@lifelines.2/@messageOccurrences.4" payload="void depart()"/>
  <messages source="//@lifelines.2/@messageOccurrences.5" target="//@lifelines.0/@messageOccurrences.16" payload="void depart()"/>
  <messages source="//@lifelines.0/@messageOccurrences.17" target="//@lifelines.2/@messageOccurrences.6" payload="void depart()"/>
  <messages source="//@lifelines.2/@messageOccurrences.7" target="//@lifelines.0/@messageOccurrences.18" payload="void depart()"/>
  <messages source="//@lifelines.0/@messageOccurrences.19" payload="void depart()"/>
  <messages target="//@lifelines.0/@messageOccurrences.20" payload="void arrive()"/>
  <messages source="//@lifelines.0/@messageOccurrences.21" target="//@lifelines.1/@messageOccurrences.8" payload="void arrive()"/>
  <messages source="//@lifelines.1/@messageOccurrences.9" target="//@lifelines.0/@messageOccurrences.22" payload="void arrive()"/>
  <messages source="//@lifelines.0/@messageOccurrences.23" target="//@lifelines.1/@messageOccurrences.10" payload="void arrive()"/>
  <messages source="//@lifelines.1/@messageOccurrences.11" target="//@lifelines.0/@messageOccurrences.24" payload="void arrive()"/>
  <messages source="//@lifelines.0/@messageOccurrences.25" target="//@lifelines.2/@messageOccurrences.8" payload="void arrive()"/>
  <messages source="//@lifelines.2/@messageOccurrences.9" target="//@lifelines.0/@messageOccurrences.26" payload="void arrive()"/>
  <messages source="//@lifelines.0/@messageOccurrences.27" target="//@lifelines.2/@messageOccurrences.10" payload="void arrive()"/>
  <messages source="//@lifelines.2/@messageOccurrences.11" target="//@lifelines.0/@messageOccurrences.28" payload="void arrive()"/>
  <messages source="//@lifelines.0/@messageOccurrences.29" payload="void arrive()"/>
  <messages target="//@lifelines.0/@messageOccurrences.30" payload="void depart()"/>
  <messages source="//@lifelines.0/@messageOccurrences.31" target="//@lifelines.1/@messageOccurrences.12" payload="void depart()"/>
  <messages source="//@lifelines.1/@messageOccurrences.13" target="//@lifelines.0/@messageOccurrences.32" payload="void depart()"/>
  <messages source="//@lifelines.0/@messageOccurrences.33" target="//@lifelines.1/@messageOccurrences.14" payload="void depart()"/>
  <messages source="//@lifelines.1/@messageOccurrences.15" target="//@lifelines.0/@messageOccurrences.34" payload="void depart()"/>
  <messages source="//@lifelines.0/@messageOccurrences.35" target="//@lifelines.2/@messageOccurrences.12" payload="void depart()"/>
  <messages source="//@lifelines.2/@messageOccurrences.13" target="//@lifelines.0/@messageOccurrences.36" payload="void depart()"/>
  <messages source="//@lifelines.0/@messageOccurrences.37" target="//@lifelines.2/@messageOccurrences.14" payload="void depart()"/>
  <messages source="//@lifelines.2/@messageOccurrences.15" target="//@lifelines.0/@messageOccurrences.38" payload="void depart()"/>
  <messages source="//@lifelines.0/@messageOccurrences.39" payload="void depart()"/>
</eu.petur:Trace>
