<?xml version="1.0" encoding="ASCII"?>
<xmi:XMI xmi:version="2.0" xmlns:xmi="http://www.omg.org/XMI" xmlns:xsi="http://www.w3.org/2001/XMLSchema-instance" xmlns:ecore="http://www.eclipse.org/emf/2002/Ecore" xmlns:eu.petur="http://www.petur.eu/trace" xmlns:dk.ingi.petur.bankingsystem="http://www.petur.eu/bankingsystem/1.0">
  <eu.petur:State>
    <object xsi:type="dk.ingi.petur.bankingsystem:NaturalPerson" name="Ekkart">
      <availableCards number="1"/>
    </object>
    <object xsi:type="dk.ingi.petur.bankingsystem:NaturalPerson" name="Lom">
      <availableCards number="2"/>
      <availableCards number="3"/>
    </object>
    <object xsi:type="dk.ingi.petur.bankingsystem:HW" showCardOn1InvalidPin="true">
      <notes/>
      <notes/>
    </object>
    <object xsi:type="dk.ingi.petur.bankingsystem:HW" showCardOn1InvalidPin="true">
      <notes/>
      <notes/>
    </object>
    <object xsi:type="dk.ingi.petur.bankingsystem:ATMController"/>
    <object xsi:type="dk.ingi.petur.bankingsystem:ATMController"/>
    <object xsi:type="dk.ingi.petur.bankingsystem:BankGateway"/>
    <object xsi:type="dk.ingi.petur.bankingsystem:AccountMngr">
      <customers id="2" name="Ekkart Kindler"/>
      <customers name="Lom Hillah"/>
      <accounts balance="2">
        <cards number="1"/>
      </accounts>
      <accounts balance="2">
        <cards number="2"/>
        <cards number="3"/>
      </accounts>
      <idleSessions/>
      <idleSessions/>
    </object>
    <object xsi:type="ecore:EFactory"/>
  </eu.petur:State>
  <eu.petur:Trace>
    <processes object="/2/@object.3/@inserted" objectClass="PhysicalBankCardImpl">
      <events type="RECEIVE"/>
      <events timestamp="1"/>
      <events timestamp="2" type="RECEIVE"/>
      <events timestamp="3" type="SEND_RETURN"/>
      <events timestamp="4" type="RECEIVE_RETURN"/>
      <events timestamp="5"/>
      <events timestamp="22" type="RECEIVE"/>
      <events timestamp="23"/>
      <events timestamp="30" type="RECEIVE_RETURN"/>
      <events timestamp="31" type="SEND_RETURN"/>
      <events timestamp="46" type="RECEIVE"/>
      <events timestamp="47" type="SEND_RETURN"/>
      <events timestamp="50" type="RECEIVE"/>
      <events timestamp="51" type="SEND_RETURN"/>
      <events timestamp="54" type="RECEIVE"/>
      <events timestamp="55" type="SEND_RETURN"/>
      <events timestamp="80" type="RECEIVE_RETURN"/>
      <events timestamp="81" type="SEND_RETURN"/>
    </processes>
    <processes object="/2/@object.1" objectClass="NaturalPersonImpl">
      <events timestamp="6" type="RECEIVE"/>
      <events timestamp="7"/>
      <events timestamp="8" type="RECEIVE"/>
      <events timestamp="9" type="SEND_RETURN"/>
      <events timestamp="10" type="RECEIVE_RETURN"/>
      <events timestamp="11"/>
      <events timestamp="12" type="RECEIVE"/>
      <events timestamp="13" type="SEND_RETURN"/>
      <events timestamp="14" type="RECEIVE_RETURN"/>
      <events timestamp="15"/>
      <events timestamp="16" type="RECEIVE"/>
      <events timestamp="17" type="SEND_RETURN"/>
      <events timestamp="18" type="RECEIVE_RETURN"/>
      <events timestamp="19"/>
      <events timestamp="24" type="RECEIVE"/>
      <events timestamp="25"/>
      <events timestamp="26" type="RECEIVE"/>
      <events timestamp="27" type="SEND_RETURN"/>
      <events timestamp="28" type="RECEIVE_RETURN"/>
      <events timestamp="29" type="SEND_RETURN"/>
      <events timestamp="78" type="RECEIVE_RETURN"/>
      <events timestamp="79" type="SEND_RETURN"/>
      <events timestamp="82" type="RECEIVE"/>
      <events timestamp="83"/>
      <events timestamp="84" type="RECEIVE"/>
      <events timestamp="85" type="SEND_RETURN"/>
      <events timestamp="86" type="RECEIVE_RETURN"/>
      <events timestamp="87"/>
      <events timestamp="452" type="RECEIVE_RETURN"/>
      <events timestamp="453" type="SEND_RETURN"/>
      <events timestamp="454" type="RECEIVE"/>
      <events timestamp="455"/>
      <events timestamp="456" type="RECEIVE"/>
      <events timestamp="457" type="SEND_RETURN"/>
      <events timestamp="458" type="RECEIVE_RETURN"/>
      <events timestamp="459"/>
      <events timestamp="471" type="RECEIVE_RETURN"/>
      <events timestamp="472" type="RECEIVE_RETURN"/>
      <events timestamp="473"/>
      <events timestamp="705" type="RECEIVE_RETURN"/>
      <events timestamp="706" type="RECEIVE_RETURN"/>
      <events timestamp="707"/>
      <events timestamp="708" type="RECEIVE"/>
      <events timestamp="709" type="SEND_RETURN"/>
      <events timestamp="710" type="RECEIVE_RETURN"/>
      <events timestamp="711" type="SEND_RETURN"/>
      <events timestamp="712" type="RECEIVE"/>
      <events timestamp="713"/>
      <events timestamp="714" type="RECEIVE"/>
      <events timestamp="715" type="SEND_RETURN"/>
      <events timestamp="716" type="RECEIVE_RETURN"/>
      <events timestamp="717"/>
      <events timestamp="718" type="RECEIVE"/>
      <events timestamp="719" type="SEND_RETURN"/>
      <events timestamp="720" type="RECEIVE_RETURN"/>
      <events timestamp="721"/>
      <events timestamp="722" type="RECEIVE"/>
      <events timestamp="723" type="SEND_RETURN"/>
      <events timestamp="724" type="RECEIVE_RETURN"/>
      <events timestamp="725"/>
      <events timestamp="726" type="RECEIVE"/>
      <events timestamp="727" type="SEND_RETURN"/>
      <events timestamp="728" type="RECEIVE_RETURN"/>
      <events timestamp="729"/>
      <events timestamp="764" type="RECEIVE_RETURN"/>
      <events timestamp="765" type="SEND_RETURN"/>
    </processes>
    <processes object="/2/@object.3" objectClass="HWImpl">
      <events timestamp="20" type="RECEIVE"/>
      <events timestamp="21"/>
      <events timestamp="32" type="RECEIVE_RETURN"/>
      <events timestamp="33"/>
      <events timestamp="34" type="RECEIVE"/>
      <events timestamp="35" type="SEND_RETURN"/>
      <events timestamp="36" type="RECEIVE_RETURN"/>
      <events timestamp="37"/>
      <events timestamp="38" type="RECEIVE"/>
      <events timestamp="39" type="SEND_RETURN"/>
      <events timestamp="40" type="RECEIVE_RETURN"/>
      <events timestamp="41"/>
      <events timestamp="42" type="RECEIVE"/>
      <events timestamp="43" type="SEND_RETURN"/>
      <events timestamp="44" type="RECEIVE_RETURN"/>
      <events timestamp="45"/>
      <events timestamp="48" type="RECEIVE_RETURN"/>
      <events timestamp="49"/>
      <events timestamp="52" type="RECEIVE_RETURN"/>
      <events timestamp="53"/>
      <events timestamp="56" type="RECEIVE_RETURN"/>
      <events timestamp="57"/>
      <events timestamp="76" type="RECEIVE_RETURN"/>
      <events timestamp="77" type="SEND_RETURN"/>
      <events timestamp="88" type="RECEIVE"/>
      <events timestamp="89"/>
      <events timestamp="90" type="RECEIVE"/>
      <events timestamp="91" type="SEND_RETURN"/>
      <events timestamp="92" type="RECEIVE_RETURN"/>
      <events timestamp="93"/>
      <events timestamp="94" type="RECEIVE"/>
      <events timestamp="95" type="SEND_RETURN"/>
      <events timestamp="96" type="RECEIVE_RETURN"/>
      <events timestamp="97"/>
      <events timestamp="441" type="RECEIVE_RETURN"/>
      <events timestamp="442" type="RECEIVE_RETURN"/>
      <events timestamp="443"/>
      <events timestamp="444" type="RECEIVE"/>
      <events timestamp="445" type="SEND_RETURN"/>
      <events timestamp="446" type="RECEIVE_RETURN"/>
      <events timestamp="447"/>
      <events timestamp="448" type="RECEIVE"/>
      <events timestamp="449" type="SEND_RETURN"/>
      <events timestamp="450" type="RECEIVE_RETURN"/>
      <events timestamp="451" type="SEND_RETURN"/>
      <events timestamp="460" type="RECEIVE"/>
      <events timestamp="461" type="RECEIVE_RETURN"/>
      <events timestamp="462"/>
      <events timestamp="463" type="RECEIVE"/>
      <events timestamp="464" type="SEND_RETURN"/>
      <events timestamp="465" type="RECEIVE_RETURN"/>
      <events timestamp="466"/>
      <events timestamp="467" type="RECEIVE"/>
      <events timestamp="468" type="SEND_RETURN"/>
      <events timestamp="469" type="RECEIVE_RETURN"/>
      <events timestamp="470" type="SEND_RETURN"/>
      <events timestamp="474" type="RECEIVE"/>
      <events timestamp="475"/>
      <events timestamp="476" type="RECEIVE"/>
      <events timestamp="477" type="SEND_RETURN"/>
      <events timestamp="478" type="RECEIVE_RETURN"/>
      <events timestamp="479"/>
      <events timestamp="480" type="RECEIVE"/>
      <events timestamp="481" type="SEND_RETURN"/>
      <events timestamp="482" type="RECEIVE_RETURN"/>
      <events timestamp="483"/>
      <events timestamp="484" type="RECEIVE"/>
      <events timestamp="485" type="SEND_RETURN"/>
      <events timestamp="486" type="RECEIVE_RETURN"/>
      <events timestamp="487"/>
      <events timestamp="660" type="RECEIVE"/>
      <events timestamp="661" type="SEND_RETURN"/>
      <events timestamp="666" type="RECEIVE_RETURN"/>
      <events timestamp="667" type="RECEIVE_RETURN"/>
      <events timestamp="668"/>
      <events timestamp="669" type="RECEIVE"/>
      <events timestamp="670" type="SEND_RETURN"/>
      <events timestamp="671" type="RECEIVE_RETURN"/>
      <events timestamp="672"/>
      <events timestamp="673" type="RECEIVE"/>
      <events timestamp="674" type="SEND_RETURN"/>
      <events timestamp="675" type="RECEIVE_RETURN"/>
      <events timestamp="676"/>
      <events timestamp="677" type="RECEIVE"/>
      <events timestamp="678"/>
      <events timestamp="679" type="RECEIVE"/>
      <events timestamp="680" type="SEND_RETURN"/>
      <events timestamp="681" type="RECEIVE_RETURN"/>
      <events timestamp="682" type="SEND_RETURN"/>
      <events timestamp="683" type="RECEIVE_RETURN"/>
      <events timestamp="684"/>
      <events timestamp="685" type="RECEIVE"/>
      <events timestamp="686"/>
      <events timestamp="687" type="RECEIVE"/>
      <events timestamp="688" type="SEND_RETURN"/>
      <events timestamp="689" type="RECEIVE_RETURN"/>
      <events timestamp="690" type="SEND_RETURN"/>
      <events timestamp="691" type="RECEIVE_RETURN"/>
      <events timestamp="692"/>
      <events timestamp="693" type="RECEIVE"/>
      <events timestamp="694" type="SEND_RETURN"/>
      <events timestamp="695" type="RECEIVE_RETURN"/>
      <events timestamp="696"/>
      <events timestamp="697" type="RECEIVE"/>
      <events timestamp="698" type="SEND_RETURN"/>
      <events timestamp="699" type="RECEIVE_RETURN"/>
      <events timestamp="700"/>
      <events timestamp="701" type="RECEIVE"/>
      <events timestamp="702" type="SEND_RETURN"/>
      <events timestamp="703" type="RECEIVE_RETURN"/>
      <events timestamp="704" type="SEND_RETURN"/>
      <events timestamp="730" type="RECEIVE"/>
      <events timestamp="731"/>
      <events timestamp="732" type="RECEIVE"/>
      <events timestamp="733" type="SEND_RETURN"/>
      <events timestamp="734" type="RECEIVE_RETURN"/>
      <events timestamp="735"/>
      <events timestamp="736" type="RECEIVE"/>
      <events timestamp="737" type="SEND_RETURN"/>
      <events timestamp="738" type="RECEIVE_RETURN"/>
      <events timestamp="739"/>
      <events timestamp="742" type="RECEIVE_RETURN"/>
      <events timestamp="743"/>
      <events timestamp="746" type="RECEIVE_RETURN"/>
      <events timestamp="747"/>
      <events timestamp="748" type="RECEIVE"/>
      <events timestamp="749" type="SEND_RETURN"/>
      <events timestamp="750" type="RECEIVE_RETURN"/>
      <events timestamp="751"/>
      <events timestamp="752" type="RECEIVE"/>
      <events timestamp="753" type="SEND_RETURN"/>
      <events timestamp="754" type="RECEIVE_RETURN"/>
      <events timestamp="755"/>
      <events timestamp="758" type="RECEIVE_RETURN"/>
      <events timestamp="759"/>
      <events timestamp="760" type="RECEIVE"/>
      <events timestamp="761" type="SEND_RETURN"/>
      <events timestamp="762" type="RECEIVE_RETURN"/>
      <events timestamp="763" type="SEND_RETURN"/>
    </processes>
    <processes object="/2/@object.5" objectClass="ATMControllerImpl">
      <events timestamp="58" type="RECEIVE"/>
      <events timestamp="59"/>
      <events timestamp="60" type="RECEIVE"/>
      <events timestamp="61" type="SEND_RETURN"/>
      <events timestamp="62" type="RECEIVE_RETURN"/>
      <events timestamp="63"/>
      <events timestamp="64" type="RECEIVE"/>
      <events timestamp="65" type="SEND_RETURN"/>
      <events timestamp="66" type="RECEIVE_RETURN"/>
      <events timestamp="67"/>
      <events timestamp="68" type="RECEIVE"/>
      <events timestamp="69" type="SEND_RETURN"/>
      <events timestamp="70" type="RECEIVE_RETURN"/>
      <events timestamp="71"/>
      <events timestamp="72" type="RECEIVE"/>
      <events timestamp="73" type="SEND_RETURN"/>
      <events timestamp="74" type="RECEIVE_RETURN"/>
      <events timestamp="75" type="SEND_RETURN"/>
      <events timestamp="98" type="RECEIVE"/>
      <events timestamp="99"/>
      <events timestamp="100" type="RECEIVE"/>
      <events timestamp="101" type="SEND_RETURN"/>
      <events timestamp="102" type="RECEIVE_RETURN"/>
      <events timestamp="103"/>
      <events timestamp="104" type="RECEIVE"/>
      <events timestamp="105" type="SEND_RETURN"/>
      <events timestamp="106" type="RECEIVE_RETURN"/>
      <events timestamp="107"/>
      <events timestamp="108" type="RECEIVE"/>
      <events timestamp="109" type="SEND_RETURN"/>
      <events timestamp="110" type="RECEIVE_RETURN"/>
      <events timestamp="111"/>
      <events timestamp="382" type="RECEIVE_RETURN"/>
      <events timestamp="383"/>
      <events timestamp="384" type="RECEIVE"/>
      <events timestamp="385" type="SEND_RETURN"/>
      <events timestamp="386" type="RECEIVE_RETURN"/>
      <events timestamp="387" type="RECEIVE_RETURN"/>
      <events timestamp="388"/>
      <events timestamp="391" type="RECEIVE_RETURN"/>
      <events timestamp="392"/>
      <events timestamp="393" type="RECEIVE"/>
      <events timestamp="394" type="SEND_RETURN"/>
      <events timestamp="395" type="RECEIVE_RETURN"/>
      <events timestamp="396"/>
      <events timestamp="399" type="RECEIVE_RETURN"/>
      <events timestamp="400"/>
      <events timestamp="407" type="RECEIVE_RETURN"/>
      <events timestamp="408"/>
      <events timestamp="411" type="RECEIVE_RETURN"/>
      <events timestamp="412"/>
      <events timestamp="419" type="RECEIVE_RETURN"/>
      <events timestamp="420"/>
      <events timestamp="435" type="RECEIVE_RETURN"/>
      <events timestamp="436"/>
      <events timestamp="439" type="RECEIVE_RETURN"/>
      <events timestamp="440" type="SEND_RETURN"/>
      <events timestamp="488" type="RECEIVE"/>
      <events timestamp="489"/>
      <events timestamp="490" type="RECEIVE"/>
      <events timestamp="491" type="SEND_RETURN"/>
      <events timestamp="492" type="RECEIVE_RETURN"/>
      <events timestamp="493"/>
      <events timestamp="494" type="RECEIVE"/>
      <events timestamp="495" type="SEND_RETURN"/>
      <events timestamp="496" type="RECEIVE_RETURN"/>
      <events timestamp="497"/>
      <events timestamp="500" type="RECEIVE_RETURN"/>
      <events timestamp="501"/>
      <events timestamp="508" type="RECEIVE_RETURN"/>
      <events timestamp="509"/>
      <events timestamp="516" type="RECEIVE_RETURN"/>
      <events timestamp="517"/>
      <events timestamp="518" type="RECEIVE"/>
      <events timestamp="519" type="SEND_RETURN"/>
      <events timestamp="520" type="RECEIVE_RETURN"/>
      <events timestamp="521"/>
      <events timestamp="652" type="RECEIVE_RETURN"/>
      <events timestamp="653"/>
      <events timestamp="654" type="RECEIVE"/>
      <events timestamp="655"/>
      <events timestamp="656" type="RECEIVE"/>
      <events timestamp="657" type="SEND_RETURN"/>
      <events timestamp="658" type="RECEIVE_RETURN"/>
      <events timestamp="659"/>
      <events timestamp="662" type="RECEIVE_RETURN"/>
      <events timestamp="663" type="SEND_RETURN"/>
      <events timestamp="664" type="RECEIVE_RETURN"/>
      <events timestamp="665" type="SEND_RETURN"/>
      <events timestamp="756" type="RECEIVE"/>
      <events timestamp="757" type="SEND_RETURN"/>
    </processes>
    <processes object="/2/@object.6" objectClass="BankGatewayImpl">
      <events timestamp="112" type="RECEIVE"/>
      <events timestamp="113"/>
      <events timestamp="114" type="RECEIVE"/>
      <events timestamp="115" type="SEND_RETURN"/>
      <events timestamp="116" type="RECEIVE_RETURN"/>
      <events timestamp="117"/>
      <events timestamp="118" type="RECEIVE"/>
      <events timestamp="119" type="SEND_RETURN"/>
      <events timestamp="120" type="RECEIVE_RETURN"/>
      <events timestamp="121"/>
      <events timestamp="288" type="RECEIVE_RETURN"/>
      <events timestamp="289"/>
      <events timestamp="292" type="RECEIVE_RETURN"/>
      <events timestamp="293"/>
      <events timestamp="294" type="RECEIVE"/>
      <events timestamp="295" type="SEND_RETURN"/>
      <events timestamp="296" type="RECEIVE_RETURN"/>
      <events timestamp="297"/>
      <events timestamp="304" type="RECEIVE_RETURN"/>
      <events timestamp="305"/>
      <events timestamp="308" type="RECEIVE_RETURN"/>
      <events timestamp="309"/>
      <events timestamp="316" type="RECEIVE_RETURN"/>
      <events timestamp="317"/>
      <events timestamp="332" type="RECEIVE_RETURN"/>
      <events timestamp="333"/>
      <events timestamp="336" type="RECEIVE_RETURN"/>
      <events timestamp="337"/>
      <events timestamp="338" type="RECEIVE"/>
      <events timestamp="339" type="SEND_RETURN"/>
      <events timestamp="340" type="RECEIVE_RETURN"/>
      <events timestamp="341"/>
      <events timestamp="348" type="RECEIVE_RETURN"/>
      <events timestamp="349"/>
      <events timestamp="352" type="RECEIVE_RETURN"/>
      <events timestamp="353"/>
      <events timestamp="360" type="RECEIVE_RETURN"/>
      <events timestamp="361"/>
      <events timestamp="376" type="RECEIVE_RETURN"/>
      <events timestamp="377"/>
      <events timestamp="380" type="RECEIVE_RETURN"/>
      <events timestamp="381" type="SEND_RETURN"/>
      <events timestamp="522" type="RECEIVE"/>
      <events timestamp="523"/>
      <events timestamp="526" type="RECEIVE_RETURN"/>
      <events timestamp="527"/>
      <events timestamp="534" type="RECEIVE_RETURN"/>
      <events timestamp="535"/>
      <events timestamp="542" type="RECEIVE_RETURN"/>
      <events timestamp="543"/>
      <events timestamp="546" type="RECEIVE_RETURN"/>
      <events timestamp="547"/>
      <events timestamp="554" type="RECEIVE_RETURN"/>
      <events timestamp="555"/>
      <events timestamp="570" type="RECEIVE_RETURN"/>
      <events timestamp="571"/>
      <events timestamp="650" type="RECEIVE_RETURN"/>
      <events timestamp="651" type="SEND_RETURN"/>
    </processes>
    <processes object="/2/@object.7" objectClass="AccountMngrImpl">
      <events timestamp="122" type="RECEIVE"/>
      <events timestamp="123"/>
      <events timestamp="126" type="RECEIVE_RETURN"/>
      <events timestamp="127"/>
      <events timestamp="128" type="RECEIVE"/>
      <events timestamp="129" type="SEND_RETURN"/>
      <events timestamp="130" type="RECEIVE_RETURN"/>
      <events timestamp="131"/>
      <events timestamp="142" type="RECEIVE_RETURN"/>
      <events timestamp="143"/>
      <events timestamp="158" type="RECEIVE_RETURN"/>
      <events timestamp="159"/>
      <events timestamp="162" type="RECEIVE_RETURN"/>
      <events timestamp="163"/>
      <events timestamp="178" type="RECEIVE_RETURN"/>
      <events timestamp="179"/>
      <events timestamp="182" type="RECEIVE_RETURN"/>
      <events timestamp="183"/>
      <events timestamp="186" type="RECEIVE"/>
      <events timestamp="187"/>
      <events timestamp="188" type="RECEIVE"/>
      <events timestamp="189" type="SEND_RETURN"/>
      <events timestamp="190" type="RECEIVE_RETURN"/>
      <events timestamp="191" type="SEND_RETURN"/>
      <events timestamp="198" type="RECEIVE_RETURN"/>
      <events timestamp="199"/>
      <events timestamp="202" type="RECEIVE_RETURN"/>
      <events timestamp="203"/>
      <events timestamp="210" type="RECEIVE_RETURN"/>
      <events timestamp="211"/>
      <events timestamp="214" type="RECEIVE_RETURN"/>
      <events timestamp="215"/>
      <events timestamp="218" type="RECEIVE_RETURN"/>
      <events timestamp="219"/>
      <events timestamp="220" type="RECEIVE"/>
      <events timestamp="221" type="SEND_RETURN"/>
      <events timestamp="222" type="RECEIVE_RETURN"/>
      <events timestamp="223"/>
      <events timestamp="230" type="RECEIVE_RETURN"/>
      <events timestamp="231"/>
      <events timestamp="234" type="RECEIVE_RETURN"/>
      <events timestamp="235"/>
      <events timestamp="242" type="RECEIVE_RETURN"/>
      <events timestamp="243"/>
      <events timestamp="258" type="RECEIVE_RETURN"/>
      <events timestamp="259"/>
      <events timestamp="262" type="RECEIVE_RETURN"/>
      <events timestamp="263"/>
      <events timestamp="286" type="RECEIVE_RETURN"/>
      <events timestamp="287" type="SEND_RETURN"/>
      <events timestamp="572" type="RECEIVE"/>
      <events timestamp="573"/>
      <events timestamp="574" type="RECEIVE"/>
      <events timestamp="575" type="SEND_RETURN"/>
      <events timestamp="576" type="RECEIVE_RETURN"/>
      <events timestamp="577"/>
      <events timestamp="580" type="RECEIVE_RETURN"/>
      <events timestamp="581"/>
      <events timestamp="588" type="RECEIVE_RETURN"/>
      <events timestamp="589"/>
      <events timestamp="592" type="RECEIVE_RETURN"/>
      <events timestamp="593"/>
      <events timestamp="596" type="RECEIVE_RETURN"/>
      <events timestamp="597"/>
      <events timestamp="604" type="RECEIVE_RETURN"/>
      <events timestamp="605"/>
      <events timestamp="606" type="RECEIVE"/>
      <events timestamp="607" type="SEND_RETURN"/>
      <events timestamp="608" type="RECEIVE_RETURN"/>
      <events timestamp="609"/>
      <events timestamp="616" type="RECEIVE_RETURN"/>
      <events timestamp="617"/>
      <events timestamp="620" type="RECEIVE_RETURN"/>
      <events timestamp="621"/>
      <events timestamp="628" type="RECEIVE_RETURN"/>
      <events timestamp="629"/>
      <events timestamp="644" type="RECEIVE_RETURN"/>
      <events timestamp="645"/>
      <events timestamp="648" type="RECEIVE_RETURN"/>
      <events timestamp="649" type="SEND_RETURN"/>
    </processes>
    <processes object="/2/@object.8" objectClass="BankingsystemFactoryImpl">
      <events timestamp="124" type="RECEIVE"/>
      <events timestamp="125" type="SEND_RETURN"/>
      <events timestamp="224" type="RECEIVE"/>
      <events timestamp="225"/>
      <events timestamp="226" type="RECEIVE"/>
      <events timestamp="227" type="SEND_RETURN"/>
      <events timestamp="228" type="RECEIVE_RETURN"/>
      <events timestamp="229" type="SEND_RETURN"/>
      <events timestamp="298" type="RECEIVE"/>
      <events timestamp="299"/>
      <events timestamp="300" type="RECEIVE"/>
      <events timestamp="301" type="SEND_RETURN"/>
      <events timestamp="302" type="RECEIVE_RETURN"/>
      <events timestamp="303" type="SEND_RETURN"/>
      <events timestamp="342" type="RECEIVE"/>
      <events timestamp="343"/>
      <events timestamp="344" type="RECEIVE"/>
      <events timestamp="345" type="SEND_RETURN"/>
      <events timestamp="346" type="RECEIVE_RETURN"/>
      <events timestamp="347" type="SEND_RETURN"/>
      <events timestamp="401" type="RECEIVE"/>
      <events timestamp="402"/>
      <events timestamp="403" type="RECEIVE"/>
      <events timestamp="404" type="SEND_RETURN"/>
      <events timestamp="405" type="RECEIVE_RETURN"/>
      <events timestamp="406" type="SEND_RETURN"/>
      <events timestamp="610" type="RECEIVE"/>
      <events timestamp="611"/>
      <events timestamp="612" type="RECEIVE"/>
      <events timestamp="613" type="SEND_RETURN"/>
      <events timestamp="614" type="RECEIVE_RETURN"/>
      <events timestamp="615" type="SEND_RETURN"/>
    </processes>
    <processes object="/2/@object.7/@sessions.0/@openingStatus" objectClass="SessionOpeningImpl">
      <events timestamp="212" type="RECEIVE"/>
      <events timestamp="213" type="SEND_RETURN"/>
      <events timestamp="216" type="RECEIVE"/>
      <events timestamp="217" type="SEND_RETURN"/>
      <events timestamp="290" type="RECEIVE"/>
      <events timestamp="291" type="SEND_RETURN"/>
      <events timestamp="389" type="RECEIVE"/>
      <events timestamp="390" type="SEND_RETURN"/>
      <events timestamp="397" type="RECEIVE"/>
      <events timestamp="398" type="SEND_RETURN"/>
    </processes>
    <processes object="/2/@object.7/@accounts.0" objectClass="AccountImpl">
      <events timestamp="132" type="RECEIVE"/>
      <events timestamp="133"/>
      <events timestamp="134" type="RECEIVE"/>
      <events timestamp="135" type="SEND_RETURN"/>
      <events timestamp="136" type="RECEIVE_RETURN"/>
      <events timestamp="137"/>
      <events timestamp="140" type="RECEIVE_RETURN"/>
      <events timestamp="141" type="SEND_RETURN"/>
    </processes>
    <processes object="/2/@object.7/@accounts.0/@cards.0" objectClass="BankCardImpl">
      <events timestamp="138" type="RECEIVE"/>
      <events timestamp="139" type="SEND_RETURN"/>
    </processes>
    <processes object="/2/@object.7/@accounts.1" objectClass="AccountImpl">
      <events timestamp="144" type="RECEIVE"/>
      <events timestamp="145"/>
      <events timestamp="146" type="RECEIVE"/>
      <events timestamp="147" type="SEND_RETURN"/>
      <events timestamp="148" type="RECEIVE_RETURN"/>
      <events timestamp="149"/>
      <events timestamp="152" type="RECEIVE_RETURN"/>
      <events timestamp="153"/>
      <events timestamp="156" type="RECEIVE_RETURN"/>
      <events timestamp="157" type="SEND_RETURN"/>
      <events timestamp="164" type="RECEIVE"/>
      <events timestamp="165"/>
      <events timestamp="166" type="RECEIVE"/>
      <events timestamp="167" type="SEND_RETURN"/>
      <events timestamp="168" type="RECEIVE_RETURN"/>
      <events timestamp="169"/>
      <events timestamp="172" type="RECEIVE_RETURN"/>
      <events timestamp="173"/>
      <events timestamp="176" type="RECEIVE_RETURN"/>
      <events timestamp="177" type="SEND_RETURN"/>
      <events timestamp="264" type="RECEIVE"/>
      <events timestamp="265"/>
      <events timestamp="266" type="RECEIVE"/>
      <events timestamp="267"/>
      <events timestamp="268" type="RECEIVE"/>
      <events timestamp="269" type="SEND_RETURN"/>
      <events timestamp="270" type="RECEIVE_RETURN"/>
      <events timestamp="271"/>
      <events timestamp="274" type="RECEIVE_RETURN"/>
      <events timestamp="275"/>
      <events timestamp="278" type="RECEIVE_RETURN"/>
      <events timestamp="279" type="SEND_RETURN"/>
      <events timestamp="280" type="RECEIVE_RETURN"/>
      <events timestamp="281"/>
      <events timestamp="284" type="RECEIVE_RETURN"/>
      <events timestamp="285" type="SEND_RETURN"/>
      <events timestamp="594" type="RECEIVE"/>
      <events timestamp="595" type="SEND_RETURN"/>
      <events timestamp="600" type="RECEIVE"/>
      <events timestamp="601" type="SEND_RETURN"/>
    </processes>
    <processes object="/2/@object.7/@accounts.1/@cards.0" objectClass="BankCardImpl">
      <events timestamp="150" type="RECEIVE"/>
      <events timestamp="151" type="SEND_RETURN"/>
      <events timestamp="170" type="RECEIVE"/>
      <events timestamp="171" type="SEND_RETURN"/>
      <events timestamp="272" type="RECEIVE"/>
      <events timestamp="273" type="SEND_RETURN"/>
    </processes>
    <processes object="/2/@object.7/@accounts.1/@cards.1" objectClass="BankCardImpl">
      <events timestamp="154" type="RECEIVE"/>
      <events timestamp="155" type="SEND_RETURN"/>
      <events timestamp="174" type="RECEIVE"/>
      <events timestamp="175" type="SEND_RETURN"/>
      <events timestamp="276" type="RECEIVE"/>
      <events timestamp="277" type="SEND_RETURN"/>
      <events timestamp="282" type="RECEIVE"/>
      <events timestamp="283" type="SEND_RETURN"/>
    </processes>
    <processes object="/2/@object.7/@sessions.0" objectClass="SessionImpl">
      <events timestamp="160" type="RECEIVE"/>
      <events timestamp="161" type="SEND_RETURN"/>
      <events timestamp="180" type="RECEIVE"/>
      <events timestamp="181" type="SEND_RETURN"/>
      <events timestamp="184" type="RECEIVE"/>
      <events timestamp="185"/>
      <events timestamp="192" type="RECEIVE_RETURN"/>
      <events timestamp="193"/>
      <events timestamp="194" type="RECEIVE"/>
      <events timestamp="195" type="SEND_RETURN"/>
      <events timestamp="196" type="RECEIVE_RETURN"/>
      <events timestamp="197" type="SEND_RETURN"/>
      <events timestamp="200" type="RECEIVE"/>
      <events timestamp="201" type="SEND_RETURN"/>
      <events timestamp="204" type="RECEIVE"/>
      <events timestamp="205"/>
      <events timestamp="206" type="RECEIVE"/>
      <events timestamp="207" type="SEND_RETURN"/>
      <events timestamp="208" type="RECEIVE_RETURN"/>
      <events timestamp="209" type="SEND_RETURN"/>
      <events timestamp="590" type="RECEIVE"/>
      <events timestamp="591" type="SEND_RETURN"/>
      <events timestamp="598" type="RECEIVE"/>
      <events timestamp="599"/>
      <events timestamp="602" type="RECEIVE_RETURN"/>
      <events timestamp="603" type="SEND_RETURN"/>
    </processes>
    <processes object="/2/@object.7/@openedSessions.0" objectClass="SessionToATMControllerMapImpl">
      <events timestamp="232" type="RECEIVE"/>
      <events timestamp="233" type="SEND_RETURN"/>
      <events timestamp="236" type="RECEIVE"/>
      <events timestamp="237"/>
      <events timestamp="238" type="RECEIVE"/>
      <events timestamp="239" type="SEND_RETURN"/>
      <events timestamp="240" type="RECEIVE_RETURN"/>
      <events timestamp="241" type="SEND_RETURN"/>
      <events timestamp="244" type="RECEIVE"/>
      <events timestamp="245"/>
      <events timestamp="246" type="RECEIVE"/>
      <events timestamp="247"/>
      <events timestamp="248" type="RECEIVE"/>
      <events timestamp="249" type="SEND_RETURN"/>
      <events timestamp="250" type="RECEIVE_RETURN"/>
      <events timestamp="251" type="SEND_RETURN"/>
      <events timestamp="252" type="RECEIVE_RETURN"/>
      <events timestamp="253"/>
      <events timestamp="254" type="RECEIVE"/>
      <events timestamp="255" type="SEND_RETURN"/>
      <events timestamp="256" type="RECEIVE_RETURN"/>
      <events timestamp="257" type="SEND_RETURN"/>
      <events timestamp="260" type="RECEIVE"/>
      <events timestamp="261" type="SEND_RETURN"/>
      <events timestamp="578" type="RECEIVE"/>
      <events timestamp="579" type="SEND_RETURN"/>
      <events timestamp="582" type="RECEIVE"/>
      <events timestamp="583"/>
      <events timestamp="584" type="RECEIVE"/>
      <events timestamp="585" type="SEND_RETURN"/>
      <events timestamp="586" type="RECEIVE_RETURN"/>
      <events timestamp="587" type="SEND_RETURN"/>
    </processes>
    <processes object="/2/@object.6/@sessions.0" objectClass="SessionToAccountMngrMapImpl">
      <events timestamp="306" type="RECEIVE"/>
      <events timestamp="307" type="SEND_RETURN"/>
      <events timestamp="310" type="RECEIVE"/>
      <events timestamp="311"/>
      <events timestamp="312" type="RECEIVE"/>
      <events timestamp="313" type="SEND_RETURN"/>
      <events timestamp="314" type="RECEIVE_RETURN"/>
      <events timestamp="315" type="SEND_RETURN"/>
      <events timestamp="318" type="RECEIVE"/>
      <events timestamp="319"/>
      <events timestamp="320" type="RECEIVE"/>
      <events timestamp="321"/>
      <events timestamp="322" type="RECEIVE"/>
      <events timestamp="323" type="SEND_RETURN"/>
      <events timestamp="324" type="RECEIVE_RETURN"/>
      <events timestamp="325" type="SEND_RETURN"/>
      <events timestamp="326" type="RECEIVE_RETURN"/>
      <events timestamp="327"/>
      <events timestamp="328" type="RECEIVE"/>
      <events timestamp="329" type="SEND_RETURN"/>
      <events timestamp="330" type="RECEIVE_RETURN"/>
      <events timestamp="331" type="SEND_RETURN"/>
      <events timestamp="334" type="RECEIVE"/>
      <events timestamp="335" type="SEND_RETURN"/>
      <events timestamp="524" type="RECEIVE"/>
      <events timestamp="525" type="SEND_RETURN"/>
      <events timestamp="528" type="RECEIVE"/>
      <events timestamp="529"/>
      <events timestamp="530" type="RECEIVE"/>
      <events timestamp="531" type="SEND_RETURN"/>
      <events timestamp="532" type="RECEIVE_RETURN"/>
      <events timestamp="533" type="SEND_RETURN"/>
      <events timestamp="536" type="RECEIVE"/>
      <events timestamp="537"/>
      <events timestamp="538" type="RECEIVE"/>
      <events timestamp="539" type="SEND_RETURN"/>
      <events timestamp="540" type="RECEIVE_RETURN"/>
      <events timestamp="541" type="SEND_RETURN"/>
    </processes>
    <processes object="/2/@object.6/@sessionsState.0" objectClass="SessionToSessionStateMapImpl">
      <events timestamp="350" type="RECEIVE"/>
      <events timestamp="351" type="SEND_RETURN"/>
      <events timestamp="354" type="RECEIVE"/>
      <events timestamp="355"/>
      <events timestamp="356" type="RECEIVE"/>
      <events timestamp="357" type="SEND_RETURN"/>
      <events timestamp="358" type="RECEIVE_RETURN"/>
      <events timestamp="359" type="SEND_RETURN"/>
      <events timestamp="362" type="RECEIVE"/>
      <events timestamp="363"/>
      <events timestamp="364" type="RECEIVE"/>
      <events timestamp="365"/>
      <events timestamp="366" type="RECEIVE"/>
      <events timestamp="367" type="SEND_RETURN"/>
      <events timestamp="368" type="RECEIVE_RETURN"/>
      <events timestamp="369" type="SEND_RETURN"/>
      <events timestamp="370" type="RECEIVE_RETURN"/>
      <events timestamp="371"/>
      <events timestamp="372" type="RECEIVE"/>
      <events timestamp="373" type="SEND_RETURN"/>
      <events timestamp="374" type="RECEIVE_RETURN"/>
      <events timestamp="375" type="SEND_RETURN"/>
      <events timestamp="378" type="RECEIVE"/>
      <events timestamp="379" type="SEND_RETURN"/>
      <events timestamp="544" type="RECEIVE"/>
      <events timestamp="545" type="SEND_RETURN"/>
      <events timestamp="548" type="RECEIVE"/>
      <events timestamp="549"/>
      <events timestamp="550" type="RECEIVE"/>
      <events timestamp="551" type="SEND_RETURN"/>
      <events timestamp="552" type="RECEIVE_RETURN"/>
      <events timestamp="553" type="SEND_RETURN"/>
      <events timestamp="556" type="RECEIVE"/>
      <events timestamp="557"/>
      <events timestamp="558" type="RECEIVE"/>
      <events timestamp="559"/>
      <events timestamp="560" type="RECEIVE"/>
      <events timestamp="561" type="SEND_RETURN"/>
      <events timestamp="562" type="RECEIVE_RETURN"/>
      <events timestamp="563" type="SEND_RETURN"/>
      <events timestamp="564" type="RECEIVE_RETURN"/>
      <events timestamp="565"/>
      <events timestamp="566" type="RECEIVE"/>
      <events timestamp="567" type="SEND_RETURN"/>
      <events timestamp="568" type="RECEIVE_RETURN"/>
      <events timestamp="569" type="SEND_RETURN"/>
    </processes>
    <processes object="/2/@object.5/@sessions.0" objectClass="IntegerToSessionMapImpl">
      <events timestamp="409" type="RECEIVE"/>
      <events timestamp="410" type="SEND_RETURN"/>
      <events timestamp="413" type="RECEIVE"/>
      <events timestamp="414"/>
      <events timestamp="415" type="RECEIVE"/>
      <events timestamp="416" type="SEND_RETURN"/>
      <events timestamp="417" type="RECEIVE_RETURN"/>
      <events timestamp="418" type="SEND_RETURN"/>
      <events timestamp="421" type="RECEIVE"/>
      <events timestamp="422"/>
      <events timestamp="423" type="RECEIVE"/>
      <events timestamp="424"/>
      <events timestamp="425" type="RECEIVE"/>
      <events timestamp="426" type="SEND_RETURN"/>
      <events timestamp="427" type="RECEIVE_RETURN"/>
      <events timestamp="428" type="SEND_RETURN"/>
      <events timestamp="429" type="RECEIVE_RETURN"/>
      <events timestamp="430"/>
      <events timestamp="431" type="RECEIVE"/>
      <events timestamp="432" type="SEND_RETURN"/>
      <events timestamp="433" type="RECEIVE_RETURN"/>
      <events timestamp="434" type="SEND_RETURN"/>
      <events timestamp="437" type="RECEIVE"/>
      <events timestamp="438" type="SEND_RETURN"/>
      <events timestamp="498" type="RECEIVE"/>
      <events timestamp="499" type="SEND_RETURN"/>
      <events timestamp="502" type="RECEIVE"/>
      <events timestamp="503"/>
      <events timestamp="504" type="RECEIVE"/>
      <events timestamp="505" type="SEND_RETURN"/>
      <events timestamp="506" type="RECEIVE_RETURN"/>
      <events timestamp="507" type="SEND_RETURN"/>
      <events timestamp="510" type="RECEIVE"/>
      <events timestamp="511"/>
      <events timestamp="512" type="RECEIVE"/>
      <events timestamp="513" type="SEND_RETURN"/>
      <events timestamp="514" type="RECEIVE_RETURN"/>
      <events timestamp="515" type="SEND_RETURN"/>
    </processes>
    <processes object="/2/@object.7/@withdrawls.0" objectClass="SessionToIntegerMapImpl">
      <events timestamp="618" type="RECEIVE"/>
      <events timestamp="619" type="SEND_RETURN"/>
      <events timestamp="622" type="RECEIVE"/>
      <events timestamp="623"/>
      <events timestamp="624" type="RECEIVE"/>
      <events timestamp="625" type="SEND_RETURN"/>
      <events timestamp="626" type="RECEIVE_RETURN"/>
      <events timestamp="627" type="SEND_RETURN"/>
      <events timestamp="630" type="RECEIVE"/>
      <events timestamp="631"/>
      <events timestamp="632" type="RECEIVE"/>
      <events timestamp="633"/>
      <events timestamp="634" type="RECEIVE"/>
      <events timestamp="635" type="SEND_RETURN"/>
      <events timestamp="636" type="RECEIVE_RETURN"/>
      <events timestamp="637" type="SEND_RETURN"/>
      <events timestamp="638" type="RECEIVE_RETURN"/>
      <events timestamp="639"/>
      <events timestamp="640" type="RECEIVE"/>
      <events timestamp="641" type="SEND_RETURN"/>
      <events timestamp="642" type="RECEIVE_RETURN"/>
      <events timestamp="643" type="SEND_RETURN"/>
      <events timestamp="646" type="RECEIVE"/>
      <events timestamp="647" type="SEND_RETURN"/>
    </processes>
    <processes object="/2/@object.1/@owns.0" objectClass="BankNoteImpl">
      <events timestamp="740" type="RECEIVE"/>
      <events timestamp="741" type="SEND_RETURN"/>
    </processes>
    <processes object="/2/@object.1/@owns.1" objectClass="BankNoteImpl">
      <events timestamp="744" type="RECEIVE"/>
      <events timestamp="745" type="SEND_RETURN"/>
    </processes>
    <source2target key="/0/@object.0" value="/2/@object.0"/>
    <source2target key="/0/@object.0/@availableCards.0" value="/2/@object.0/@availableCards.0"/>
    <source2target key="/0/@object.1" value="/2/@object.1"/>
    <source2target key="/0/@object.1/@availableCards.0" value="/2/@object.1/@availableCards.0"/>
    <source2target key="/0/@object.1/@availableCards.1" value="/2/@object.3/@inserted"/>
    <source2target key="/0/@object.2" value="/2/@object.2"/>
    <source2target key="/0/@object.2/@notes.0" value="/2/@object.2/@notes.0"/>
    <source2target key="/0/@object.2/@notes.1" value="/2/@object.2/@notes.1"/>
    <source2target key="/0/@object.3" value="/2/@object.3"/>
    <source2target key="/0/@object.3/@notes.0" value="/2/@object.1/@owns.0"/>
    <source2target key="/0/@object.3/@notes.1" value="/2/@object.1/@owns.1"/>
    <source2target key="/0/@object.4" value="/2/@object.4"/>
    <source2target key="/0/@object.5" value="/2/@object.5"/>
    <source2target key="/0/@object.6" value="/2/@object.6"/>
    <source2target key="/0/@object.7" value="/2/@object.7"/>
    <source2target key="/0/@object.7/@customers.0" value="/2/@object.7/@customers.0"/>
    <source2target key="/0/@object.7/@customers.1" value="/2/@object.7/@customers.1"/>
    <source2target key="/0/@object.7/@accounts.0" value="/2/@object.7/@accounts.0"/>
    <source2target key="/0/@object.7/@accounts.0/@cards.0" value="/2/@object.7/@accounts.0/@cards.0"/>
    <source2target key="/0/@object.7/@accounts.1" value="/2/@object.7/@accounts.1"/>
    <source2target key="/0/@object.7/@accounts.1/@cards.0" value="/2/@object.7/@accounts.1/@cards.0"/>
    <source2target key="/0/@object.7/@accounts.1/@cards.1" value="/2/@object.7/@accounts.1/@cards.1"/>
    <source2target key="/0/@object.7/@idleSessions.0" value="/2/@object.7/@sessions.0"/>
    <source2target key="/0/@object.7/@idleSessions.1" value="/2/@object.7/@idleSessions.0"/>
    <source2target key="/0/@object.8" value="/2/@object.8"/>
    <messages target="/1/@processes.0/@events.0" payload="void insertCard()"/>
    <messages source="/1/@processes.0/@events.1" target="/1/@processes.0/@events.2" payload="NaturalPerson getOwner()"/>
    <messages source="/1/@processes.0/@events.3" target="/1/@processes.0/@events.4" payload="NaturalPerson getOwner()"/>
    <messages source="/1/@processes.0/@events.5" target="/1/@processes.1/@events.0" payload="InsertedCardStatus insertCard(PhysicalBankCard card)"/>
    <messages source="/1/@processes.1/@events.1" target="/1/@processes.1/@events.2" payload="EList getAvailableCards()"/>
    <messages source="/1/@processes.1/@events.3" target="/1/@processes.1/@events.4" payload="EList getAvailableCards()"/>
    <messages source="/1/@processes.1/@events.5" target="/1/@processes.1/@events.6" payload="EList getUses()"/>
    <messages source="/1/@processes.1/@events.7" target="/1/@processes.1/@events.8" payload="EList getUses()"/>
    <messages source="/1/@processes.1/@events.9" target="/1/@processes.1/@events.10" payload="EList getUses()"/>
    <messages source="/1/@processes.1/@events.11" target="/1/@processes.1/@events.12" payload="EList getUses()"/>
    <messages source="/1/@processes.1/@events.13" target="/1/@processes.2/@events.0" payload="InsertedCardStatus setInserted(PhysicalBankCard newInserted)"/>
    <messages source="/1/@processes.2/@events.1" target="/1/@processes.0/@events.6" payload="NotificationChain eBasicRemoveFromContainerFeature(NotificationChain msgs)"/>
    <messages source="/1/@processes.0/@events.7" target="/1/@processes.1/@events.14" payload="NotificationChain eInverseRemove(InternalEObject otherEnd, int featureID, NotificationChain msgs)"/>
    <messages source="/1/@processes.1/@events.15" target="/1/@processes.1/@events.16" payload="EList getAvailableCards()"/>
    <messages source="/1/@processes.1/@events.17" target="/1/@processes.1/@events.18" payload="EList getAvailableCards()"/>
    <messages source="/1/@processes.1/@events.19" target="/1/@processes.0/@events.8" payload="NotificationChain eInverseRemove(InternalEObject otherEnd, int featureID, NotificationChain msgs)"/>
    <messages source="/1/@processes.0/@events.9" target="/1/@processes.2/@events.2" payload="NotificationChain eBasicRemoveFromContainerFeature(NotificationChain msgs)"/>
    <messages source="/1/@processes.2/@events.3" target="/1/@processes.2/@events.4" payload="NotificationChain basicSetInserted(PhysicalBankCard newInserted, NotificationChain msgs)"/>
    <messages source="/1/@processes.2/@events.5" target="/1/@processes.2/@events.6" payload="NotificationChain basicSetInserted(PhysicalBankCard newInserted, NotificationChain msgs)"/>
    <messages source="/1/@processes.2/@events.7" target="/1/@processes.2/@events.8" payload="ATMController getController()"/>
    <messages source="/1/@processes.2/@events.9" target="/1/@processes.2/@events.10" payload="ATMController getController()"/>
    <messages source="/1/@processes.2/@events.11" target="/1/@processes.2/@events.12" payload="ATMController getController()"/>
    <messages source="/1/@processes.2/@events.13" target="/1/@processes.2/@events.14" payload="ATMController getController()"/>
    <messages source="/1/@processes.2/@events.15" target="/1/@processes.0/@events.10" payload="int getNumber()"/>
    <messages source="/1/@processes.0/@events.11" target="/1/@processes.2/@events.16" payload="int getNumber()"/>
    <messages source="/1/@processes.2/@events.17" target="/1/@processes.0/@events.12" payload="AccountMngr getIssuer()"/>
    <messages source="/1/@processes.0/@events.13" target="/1/@processes.2/@events.18" payload="AccountMngr getIssuer()"/>
    <messages source="/1/@processes.2/@events.19" target="/1/@processes.0/@events.14" payload="int getPin()"/>
    <messages source="/1/@processes.0/@events.15" target="/1/@processes.2/@events.20" payload="int getPin()"/>
    <messages source="/1/@processes.2/@events.21" target="/1/@processes.3/@events.0" payload="void insertCard(int cardNumber, AccountMngr issuer, int pin)"/>
    <messages source="/1/@processes.3/@events.1" target="/1/@processes.3/@events.2" payload="void setCurrentCardNum(int newCurrentCardNum)"/>
    <messages source="/1/@processes.3/@events.3" target="/1/@processes.3/@events.4" payload="void setCurrentCardNum(int newCurrentCardNum)"/>
    <messages source="/1/@processes.3/@events.5" target="/1/@processes.3/@events.6" payload="void setCurrentIssuer(AccountMngr newCurrentIssuer)"/>
    <messages source="/1/@processes.3/@events.7" target="/1/@processes.3/@events.8" payload="void setCurrentIssuer(AccountMngr newCurrentIssuer)"/>
    <messages source="/1/@processes.3/@events.9" target="/1/@processes.3/@events.10" payload="void setCurrentPin(int newCurrentPin)"/>
    <messages source="/1/@processes.3/@events.11" target="/1/@processes.3/@events.12" payload="void setCurrentPin(int newCurrentPin)"/>
    <messages source="/1/@processes.3/@events.13" target="/1/@processes.3/@events.14" payload="void setNbTentatives(int newNbTentatives)"/>
    <messages source="/1/@processes.3/@events.15" target="/1/@processes.3/@events.16" payload="void setNbTentatives(int newNbTentatives)"/>
    <messages source="/1/@processes.3/@events.17" target="/1/@processes.2/@events.22" payload="void insertCard(int cardNumber, AccountMngr issuer, int pin)"/>
    <messages source="/1/@processes.2/@events.23" target="/1/@processes.1/@events.20" payload="InsertedCardStatus setInserted(PhysicalBankCard newInserted)"/>
    <messages source="/1/@processes.1/@events.21" target="/1/@processes.0/@events.16" payload="InsertedCardStatus insertCard(PhysicalBankCard card)"/>
    <messages source="/1/@processes.0/@events.17" payload="void insertCard()"/>
    <messages target="/1/@processes.1/@events.22" payload="InsertedCardStatus enterPin(int pin)"/>
    <messages source="/1/@processes.1/@events.23" target="/1/@processes.1/@events.24" payload="EList getUses()"/>
    <messages source="/1/@processes.1/@events.25" target="/1/@processes.1/@events.26" payload="EList getUses()"/>
    <messages source="/1/@processes.1/@events.27" target="/1/@processes.2/@events.24" payload="InsertedCardStatus enterPin(int pin)"/>
    <messages source="/1/@processes.2/@events.25" target="/1/@processes.2/@events.26" payload="PhysicalBankCard getInserted()"/>
    <messages source="/1/@processes.2/@events.27" target="/1/@processes.2/@events.28" payload="PhysicalBankCard getInserted()"/>
    <messages source="/1/@processes.2/@events.29" target="/1/@processes.2/@events.30" payload="ATMController getController()"/>
    <messages source="/1/@processes.2/@events.31" target="/1/@processes.2/@events.32" payload="ATMController getController()"/>
    <messages source="/1/@processes.2/@events.33" target="/1/@processes.3/@events.18" payload="InsertedCardStatus setPin(int enteredPin)"/>
    <messages source="/1/@processes.3/@events.19" target="/1/@processes.3/@events.20" payload="BankGateway getGateway()"/>
    <messages source="/1/@processes.3/@events.21" target="/1/@processes.3/@events.22" payload="BankGateway getGateway()"/>
    <messages source="/1/@processes.3/@events.23" target="/1/@processes.3/@events.24" payload="int getCurrentCardNum()"/>
    <messages source="/1/@processes.3/@events.25" target="/1/@processes.3/@events.26" payload="int getCurrentCardNum()"/>
    <messages source="/1/@processes.3/@events.27" target="/1/@processes.3/@events.28" payload="AccountMngr getCurrentIssuer()"/>
    <messages source="/1/@processes.3/@events.29" target="/1/@processes.3/@events.30" payload="AccountMngr getCurrentIssuer()"/>
    <messages source="/1/@processes.3/@events.31" target="/1/@processes.4/@events.0" payload="SessionOpening openSession(int card, AccountMngr issuer, ATMController controller)"/>
    <messages source="/1/@processes.4/@events.1" target="/1/@processes.4/@events.2" payload="EList getATMs()"/>
    <messages source="/1/@processes.4/@events.3" target="/1/@processes.4/@events.4" payload="EList getATMs()"/>
    <messages source="/1/@processes.4/@events.5" target="/1/@processes.4/@events.6" payload="EList getAccountMngrs()"/>
    <messages source="/1/@processes.4/@events.7" target="/1/@processes.4/@events.8" payload="EList getAccountMngrs()"/>
    <messages source="/1/@processes.4/@events.9" target="/1/@processes.5/@events.0" payload="SessionOpening openSession(int cardNumber, ATMController controller)"/>
    <messages source="/1/@processes.5/@events.1" target="/1/@processes.6/@events.0" payload="SessionOpening createSessionOpening()"/>
    <messages source="/1/@processes.6/@events.1" target="/1/@processes.5/@events.2" payload="SessionOpening createSessionOpening()"/>
    <messages source="/1/@processes.5/@events.3" target="/1/@processes.5/@events.4" payload="EList getAccounts()"/>
    <messages source="/1/@processes.5/@events.5" target="/1/@processes.5/@events.6" payload="EList getAccounts()"/>
    <messages source="/1/@processes.5/@events.7" target="/1/@processes.8/@events.0" payload="BankCard getBankCard(int physicalCardNumber)"/>
    <messages source="/1/@processes.8/@events.1" target="/1/@processes.8/@events.2" payload="EList getCards()"/>
    <messages source="/1/@processes.8/@events.3" target="/1/@processes.8/@events.4" payload="EList getCards()"/>
    <messages source="/1/@processes.8/@events.5" target="/1/@processes.9/@events.0" payload="int getNumber()"/>
    <messages source="/1/@processes.9/@events.1" target="/1/@processes.8/@events.6" payload="int getNumber()"/>
    <messages source="/1/@processes.8/@events.7" target="/1/@processes.5/@events.8" payload="BankCard getBankCard(int physicalCardNumber)"/>
    <messages source="/1/@processes.5/@events.9" target="/1/@processes.10/@events.0" payload="BankCard getBankCard(int physicalCardNumber)"/>
    <messages source="/1/@processes.10/@events.1" target="/1/@processes.10/@events.2" payload="EList getCards()"/>
    <messages source="/1/@processes.10/@events.3" target="/1/@processes.10/@events.4" payload="EList getCards()"/>
    <messages source="/1/@processes.10/@events.5" target="/1/@processes.11/@events.0" payload="int getNumber()"/>
    <messages source="/1/@processes.11/@events.1" target="/1/@processes.10/@events.6" payload="int getNumber()"/>
    <messages source="/1/@processes.10/@events.7" target="/1/@processes.12/@events.0" payload="int getNumber()"/>
    <messages source="/1/@processes.12/@events.1" target="/1/@processes.10/@events.8" payload="int getNumber()"/>
    <messages source="/1/@processes.10/@events.9" target="/1/@processes.5/@events.10" payload="BankCard getBankCard(int physicalCardNumber)"/>
    <messages source="/1/@processes.5/@events.11" target="/1/@processes.13/@events.0" payload="void setAccount(Account newAccount)"/>
    <messages source="/1/@processes.13/@events.1" target="/1/@processes.5/@events.12" payload="void setAccount(Account newAccount)"/>
    <messages source="/1/@processes.5/@events.13" target="/1/@processes.10/@events.10" payload="BankCard getBankCard(int physicalCardNumber)"/>
    <messages source="/1/@processes.10/@events.11" target="/1/@processes.10/@events.12" payload="EList getCards()"/>
    <messages source="/1/@processes.10/@events.13" target="/1/@processes.10/@events.14" payload="EList getCards()"/>
    <messages source="/1/@processes.10/@events.15" target="/1/@processes.11/@events.2" payload="int getNumber()"/>
    <messages source="/1/@processes.11/@events.3" target="/1/@processes.10/@events.16" payload="int getNumber()"/>
    <messages source="/1/@processes.10/@events.17" target="/1/@processes.12/@events.2" payload="int getNumber()"/>
    <messages source="/1/@processes.12/@events.3" target="/1/@processes.10/@events.18" payload="int getNumber()"/>
    <messages source="/1/@processes.10/@events.19" target="/1/@processes.5/@events.14" payload="BankCard getBankCard(int physicalCardNumber)"/>
    <messages source="/1/@processes.5/@events.15" target="/1/@processes.13/@events.2" payload="void setCard(BankCard newCard)"/>
    <messages source="/1/@processes.13/@events.3" target="/1/@processes.5/@events.16" payload="void setCard(BankCard newCard)"/>
    <messages source="/1/@processes.5/@events.17" target="/1/@processes.13/@events.4" payload="void setOwner(AccountMngr newOwner)"/>
    <messages source="/1/@processes.13/@events.5" target="/1/@processes.5/@events.18" payload="NotificationChain eInverseAdd(InternalEObject otherEnd, int featureID, NotificationChain msgs)"/>
    <messages source="/1/@processes.5/@events.19" target="/1/@processes.5/@events.20" payload="EList getSessions()"/>
    <messages source="/1/@processes.5/@events.21" target="/1/@processes.5/@events.22" payload="EList getSessions()"/>
    <messages source="/1/@processes.5/@events.23" target="/1/@processes.13/@events.6" payload="NotificationChain eInverseAdd(InternalEObject otherEnd, int featureID, NotificationChain msgs)"/>
    <messages source="/1/@processes.13/@events.7" target="/1/@processes.13/@events.8" payload="NotificationChain basicSetOwner(AccountMngr newOwner, NotificationChain msgs)"/>
    <messages source="/1/@processes.13/@events.9" target="/1/@processes.13/@events.10" payload="NotificationChain basicSetOwner(AccountMngr newOwner, NotificationChain msgs)"/>
    <messages source="/1/@processes.13/@events.11" target="/1/@processes.5/@events.24" payload="void setOwner(AccountMngr newOwner)"/>
    <messages source="/1/@processes.5/@events.25" target="/1/@processes.13/@events.12" payload="void setATM(ATMController newATM)"/>
    <messages source="/1/@processes.13/@events.13" target="/1/@processes.5/@events.26" payload="void setATM(ATMController newATM)"/>
    <messages source="/1/@processes.5/@events.27" target="/1/@processes.13/@events.14" payload="void setOpeningStatus(SessionOpening newOpeningStatus)"/>
    <messages source="/1/@processes.13/@events.15" target="/1/@processes.13/@events.16" payload="NotificationChain basicSetOpeningStatus(SessionOpening newOpeningStatus, NotificationChain msgs)"/>
    <messages source="/1/@processes.13/@events.17" target="/1/@processes.13/@events.18" payload="NotificationChain basicSetOpeningStatus(SessionOpening newOpeningStatus, NotificationChain msgs)"/>
    <messages source="/1/@processes.13/@events.19" target="/1/@processes.5/@events.28" payload="void setOpeningStatus(SessionOpening newOpeningStatus)"/>
    <messages source="/1/@processes.5/@events.29" target="/1/@processes.7/@events.0" payload="void setSession(Session newSession)"/>
    <messages source="/1/@processes.7/@events.1" target="/1/@processes.5/@events.30" payload="void setSession(Session newSession)"/>
    <messages source="/1/@processes.5/@events.31" target="/1/@processes.7/@events.2" payload="void setOpeningStatus(SessionOpeningStatus newOpeningStatus)"/>
    <messages source="/1/@processes.7/@events.3" target="/1/@processes.5/@events.32" payload="void setOpeningStatus(SessionOpeningStatus newOpeningStatus)"/>
    <messages source="/1/@processes.5/@events.33" target="/1/@processes.5/@events.34" payload="EMap getOpenedSessions()"/>
    <messages source="/1/@processes.5/@events.35" target="/1/@processes.5/@events.36" payload="EMap getOpenedSessions()"/>
    <messages source="/1/@processes.5/@events.37" target="/1/@processes.6/@events.2" payload="EObject create(EClass eClass)"/>
    <messages source="/1/@processes.6/@events.3" target="/1/@processes.6/@events.4" payload="Entry createSessionToATMControllerMap()"/>
    <messages source="/1/@processes.6/@events.5" target="/1/@processes.6/@events.6" payload="Entry createSessionToATMControllerMap()"/>
    <messages source="/1/@processes.6/@events.7" target="/1/@processes.5/@events.38" payload="EObject create(EClass eClass)"/>
    <messages source="/1/@processes.5/@events.39" target="/1/@processes.14/@events.0" payload="void setHash(int hash)"/>
    <messages source="/1/@processes.14/@events.1" target="/1/@processes.5/@events.40" payload="void setHash(int hash)"/>
    <messages source="/1/@processes.5/@events.41" target="/1/@processes.14/@events.2" payload="void setKey(Session key)"/>
    <messages source="/1/@processes.14/@events.3" target="/1/@processes.14/@events.4" payload="void setTypedKey(Session newKey)"/>
    <messages source="/1/@processes.14/@events.5" target="/1/@processes.14/@events.6" payload="void setTypedKey(Session newKey)"/>
    <messages source="/1/@processes.14/@events.7" target="/1/@processes.5/@events.42" payload="void setKey(Session key)"/>
    <messages source="/1/@processes.5/@events.43" target="/1/@processes.14/@events.8" payload="ATMController setValue(ATMController value)"/>
    <messages source="/1/@processes.14/@events.9" target="/1/@processes.14/@events.10" payload="ATMController getValue()"/>
    <messages source="/1/@processes.14/@events.11" target="/1/@processes.14/@events.12" payload="ATMController getTypedValue()"/>
    <messages source="/1/@processes.14/@events.13" target="/1/@processes.14/@events.14" payload="ATMController getTypedValue()"/>
    <messages source="/1/@processes.14/@events.15" target="/1/@processes.14/@events.16" payload="ATMController getValue()"/>
    <messages source="/1/@processes.14/@events.17" target="/1/@processes.14/@events.18" payload="void setTypedValue(ATMController newValue)"/>
    <messages source="/1/@processes.14/@events.19" target="/1/@processes.14/@events.20" payload="void setTypedValue(ATMController newValue)"/>
    <messages source="/1/@processes.14/@events.21" target="/1/@processes.5/@events.44" payload="ATMController setValue(ATMController value)"/>
    <messages source="/1/@processes.5/@events.45" target="/1/@processes.14/@events.22" payload="int getHash()"/>
    <messages source="/1/@processes.14/@events.23" target="/1/@processes.5/@events.46" payload="int getHash()"/>
    <messages source="/1/@processes.5/@events.47" target="/1/@processes.10/@events.20" payload="void createSession(int cardNumber)"/>
    <messages source="/1/@processes.10/@events.21" target="/1/@processes.10/@events.22" payload="BankCard getBankCard(int physicalCardNumber)"/>
    <messages source="/1/@processes.10/@events.23" target="/1/@processes.10/@events.24" payload="EList getCards()"/>
    <messages source="/1/@processes.10/@events.25" target="/1/@processes.10/@events.26" payload="EList getCards()"/>
    <messages source="/1/@processes.10/@events.27" target="/1/@processes.11/@events.4" payload="int getNumber()"/>
    <messages source="/1/@processes.11/@events.5" target="/1/@processes.10/@events.28" payload="int getNumber()"/>
    <messages source="/1/@processes.10/@events.29" target="/1/@processes.12/@events.4" payload="int getNumber()"/>
    <messages source="/1/@processes.12/@events.5" target="/1/@processes.10/@events.30" payload="int getNumber()"/>
    <messages source="/1/@processes.10/@events.31" target="/1/@processes.10/@events.32" payload="BankCard getBankCard(int physicalCardNumber)"/>
    <messages source="/1/@processes.10/@events.33" target="/1/@processes.12/@events.6" payload="void createSession()"/>
    <messages source="/1/@processes.12/@events.7" target="/1/@processes.10/@events.34" payload="void createSession()"/>
    <messages source="/1/@processes.10/@events.35" target="/1/@processes.5/@events.48" payload="void createSession(int cardNumber)"/>
    <messages source="/1/@processes.5/@events.49" target="/1/@processes.4/@events.10" payload="SessionOpening openSession(int cardNumber, ATMController controller)"/>
    <messages source="/1/@processes.4/@events.11" target="/1/@processes.7/@events.4" payload="Session getSession()"/>
    <messages source="/1/@processes.7/@events.5" target="/1/@processes.4/@events.12" payload="Session getSession()"/>
    <messages source="/1/@processes.4/@events.13" target="/1/@processes.4/@events.14" payload="EMap getSessions()"/>
    <messages source="/1/@processes.4/@events.15" target="/1/@processes.4/@events.16" payload="EMap getSessions()"/>
    <messages source="/1/@processes.4/@events.17" target="/1/@processes.6/@events.8" payload="EObject create(EClass eClass)"/>
    <messages source="/1/@processes.6/@events.9" target="/1/@processes.6/@events.10" payload="Entry createSessionToAccountMngrMap()"/>
    <messages source="/1/@processes.6/@events.11" target="/1/@processes.6/@events.12" payload="Entry createSessionToAccountMngrMap()"/>
    <messages source="/1/@processes.6/@events.13" target="/1/@processes.4/@events.18" payload="EObject create(EClass eClass)"/>
    <messages source="/1/@processes.4/@events.19" target="/1/@processes.15/@events.0" payload="void setHash(int hash)"/>
    <messages source="/1/@processes.15/@events.1" target="/1/@processes.4/@events.20" payload="void setHash(int hash)"/>
    <messages source="/1/@processes.4/@events.21" target="/1/@processes.15/@events.2" payload="void setKey(Session key)"/>
    <messages source="/1/@processes.15/@events.3" target="/1/@processes.15/@events.4" payload="void setTypedKey(Session newKey)"/>
    <messages source="/1/@processes.15/@events.5" target="/1/@processes.15/@events.6" payload="void setTypedKey(Session newKey)"/>
    <messages source="/1/@processes.15/@events.7" target="/1/@processes.4/@events.22" payload="void setKey(Session key)"/>
    <messages source="/1/@processes.4/@events.23" target="/1/@processes.15/@events.8" payload="AccountMngr setValue(AccountMngr value)"/>
    <messages source="/1/@processes.15/@events.9" target="/1/@processes.15/@events.10" payload="AccountMngr getValue()"/>
    <messages source="/1/@processes.15/@events.11" target="/1/@processes.15/@events.12" payload="AccountMngr getTypedValue()"/>
    <messages source="/1/@processes.15/@events.13" target="/1/@processes.15/@events.14" payload="AccountMngr getTypedValue()"/>
    <messages source="/1/@processes.15/@events.15" target="/1/@processes.15/@events.16" payload="AccountMngr getValue()"/>
    <messages source="/1/@processes.15/@events.17" target="/1/@processes.15/@events.18" payload="void setTypedValue(AccountMngr newValue)"/>
    <messages source="/1/@processes.15/@events.19" target="/1/@processes.15/@events.20" payload="void setTypedValue(AccountMngr newValue)"/>
    <messages source="/1/@processes.15/@events.21" target="/1/@processes.4/@events.24" payload="AccountMngr setValue(AccountMngr value)"/>
    <messages source="/1/@processes.4/@events.25" target="/1/@processes.15/@events.22" payload="int getHash()"/>
    <messages source="/1/@processes.15/@events.23" target="/1/@processes.4/@events.26" payload="int getHash()"/>
    <messages source="/1/@processes.4/@events.27" target="/1/@processes.4/@events.28" payload="EMap getSessionsState()"/>
    <messages source="/1/@processes.4/@events.29" target="/1/@processes.4/@events.30" payload="EMap getSessionsState()"/>
    <messages source="/1/@processes.4/@events.31" target="/1/@processes.6/@events.14" payload="EObject create(EClass eClass)"/>
    <messages source="/1/@processes.6/@events.15" target="/1/@processes.6/@events.16" payload="Entry createSessionToSessionStateMap()"/>
    <messages source="/1/@processes.6/@events.17" target="/1/@processes.6/@events.18" payload="Entry createSessionToSessionStateMap()"/>
    <messages source="/1/@processes.6/@events.19" target="/1/@processes.4/@events.32" payload="EObject create(EClass eClass)"/>
    <messages source="/1/@processes.4/@events.33" target="/1/@processes.16/@events.0" payload="void setHash(int hash)"/>
    <messages source="/1/@processes.16/@events.1" target="/1/@processes.4/@events.34" payload="void setHash(int hash)"/>
    <messages source="/1/@processes.4/@events.35" target="/1/@processes.16/@events.2" payload="void setKey(Session key)"/>
    <messages source="/1/@processes.16/@events.3" target="/1/@processes.16/@events.4" payload="void setTypedKey(Session newKey)"/>
    <messages source="/1/@processes.16/@events.5" target="/1/@processes.16/@events.6" payload="void setTypedKey(Session newKey)"/>
    <messages source="/1/@processes.16/@events.7" target="/1/@processes.4/@events.36" payload="void setKey(Session key)"/>
    <messages source="/1/@processes.4/@events.37" target="/1/@processes.16/@events.8" payload="SessionState setValue(SessionState value)"/>
    <messages source="/1/@processes.16/@events.9" target="/1/@processes.16/@events.10" payload="SessionState getValue()"/>
    <messages source="/1/@processes.16/@events.11" target="/1/@processes.16/@events.12" payload="SessionState getTypedValue()"/>
    <messages source="/1/@processes.16/@events.13" target="/1/@processes.16/@events.14" payload="SessionState getTypedValue()"/>
    <messages source="/1/@processes.16/@events.15" target="/1/@processes.16/@events.16" payload="SessionState getValue()"/>
    <messages source="/1/@processes.16/@events.17" target="/1/@processes.16/@events.18" payload="void setTypedValue(SessionState newValue)"/>
    <messages source="/1/@processes.16/@events.19" target="/1/@processes.16/@events.20" payload="void setTypedValue(SessionState newValue)"/>
    <messages source="/1/@processes.16/@events.21" target="/1/@processes.4/@events.38" payload="SessionState setValue(SessionState value)"/>
    <messages source="/1/@processes.4/@events.39" target="/1/@processes.16/@events.22" payload="int getHash()"/>
    <messages source="/1/@processes.16/@events.23" target="/1/@processes.4/@events.40" payload="int getHash()"/>
    <messages source="/1/@processes.4/@events.41" target="/1/@processes.3/@events.32" payload="SessionOpening openSession(int card, AccountMngr issuer, ATMController controller)"/>
    <messages source="/1/@processes.3/@events.33" target="/1/@processes.3/@events.34" payload="void setNbTentatives(int newNbTentatives)"/>
    <messages source="/1/@processes.3/@events.35" target="/1/@processes.3/@events.36" payload="void setNbTentatives(int newNbTentatives)"/>
    <messages source="/1/@processes.3/@events.38" target="/1/@processes.7/@events.6" payload="SessionOpeningStatus getOpeningStatus()"/>
    <messages source="/1/@processes.7/@events.7" target="/1/@processes.3/@events.39" payload="SessionOpeningStatus getOpeningStatus()"/>
    <messages source="/1/@processes.3/@events.40" target="/1/@processes.3/@events.41" payload="EMap getSessions()"/>
    <messages source="/1/@processes.3/@events.42" target="/1/@processes.3/@events.43" payload="EMap getSessions()"/>
    <messages source="/1/@processes.3/@events.44" target="/1/@processes.7/@events.8" payload="Session getSession()"/>
    <messages source="/1/@processes.7/@events.9" target="/1/@processes.3/@events.45" payload="Session getSession()"/>
    <messages source="/1/@processes.3/@events.46" target="/1/@processes.6/@events.20" payload="EObject create(EClass eClass)"/>
    <messages source="/1/@processes.6/@events.21" target="/1/@processes.6/@events.22" payload="Entry createIntegerToSessionMap()"/>
    <messages source="/1/@processes.6/@events.23" target="/1/@processes.6/@events.24" payload="Entry createIntegerToSessionMap()"/>
    <messages source="/1/@processes.6/@events.25" target="/1/@processes.3/@events.47" payload="EObject create(EClass eClass)"/>
    <messages source="/1/@processes.3/@events.48" target="/1/@processes.17/@events.0" payload="void setHash(int hash)"/>
    <messages source="/1/@processes.17/@events.1" target="/1/@processes.3/@events.49" payload="void setHash(int hash)"/>
    <messages source="/1/@processes.3/@events.50" target="/1/@processes.17/@events.2" payload="void setKey(Integer key)"/>
    <messages source="/1/@processes.17/@events.3" target="/1/@processes.17/@events.4" payload="void setTypedKey(Integer newKey)"/>
    <messages source="/1/@processes.17/@events.5" target="/1/@processes.17/@events.6" payload="void setTypedKey(Integer newKey)"/>
    <messages source="/1/@processes.17/@events.7" target="/1/@processes.3/@events.51" payload="void setKey(Integer key)"/>
    <messages source="/1/@processes.3/@events.52" target="/1/@processes.17/@events.8" payload="Session setValue(Session value)"/>
    <messages source="/1/@processes.17/@events.9" target="/1/@processes.17/@events.10" payload="Session getValue()"/>
    <messages source="/1/@processes.17/@events.11" target="/1/@processes.17/@events.12" payload="Session getTypedValue()"/>
    <messages source="/1/@processes.17/@events.13" target="/1/@processes.17/@events.14" payload="Session getTypedValue()"/>
    <messages source="/1/@processes.17/@events.15" target="/1/@processes.17/@events.16" payload="Session getValue()"/>
    <messages source="/1/@processes.17/@events.17" target="/1/@processes.17/@events.18" payload="void setTypedValue(Session newValue)"/>
    <messages source="/1/@processes.17/@events.19" target="/1/@processes.17/@events.20" payload="void setTypedValue(Session newValue)"/>
    <messages source="/1/@processes.17/@events.21" target="/1/@processes.3/@events.53" payload="Session setValue(Session value)"/>
    <messages source="/1/@processes.3/@events.54" target="/1/@processes.17/@events.22" payload="int getHash()"/>
    <messages source="/1/@processes.17/@events.23" target="/1/@processes.3/@events.55" payload="int getHash()"/>
    <messages source="/1/@processes.3/@events.56" target="/1/@processes.2/@events.34" payload="InsertedCardStatus setPin(int enteredPin)"/>
    <messages source="/1/@processes.2/@events.36" target="/1/@processes.2/@events.37" payload="void display(String string)"/>
    <messages source="/1/@processes.2/@events.38" target="/1/@processes.2/@events.39" payload="void display(String string)"/>
    <messages source="/1/@processes.2/@events.40" target="/1/@processes.2/@events.41" payload="void setIsPinRequested(boolean newIsPinRequested)"/>
    <messages source="/1/@processes.2/@events.42" target="/1/@processes.2/@events.43" payload="void setIsPinRequested(boolean newIsPinRequested)"/>
    <messages source="/1/@processes.2/@events.44" target="/1/@processes.1/@events.28" payload="InsertedCardStatus enterPin(int pin)"/>
    <messages source="/1/@processes.1/@events.29" payload="InsertedCardStatus enterPin(int pin)"/>
    <messages target="/1/@processes.1/@events.30" payload="WithdrawMoneyStatus withdraw(int amount)"/>
    <messages source="/1/@processes.1/@events.31" target="/1/@processes.1/@events.32" payload="EList getUses()"/>
    <messages source="/1/@processes.1/@events.33" target="/1/@processes.1/@events.34" payload="EList getUses()"/>
    <messages source="/1/@processes.1/@events.35" target="/1/@processes.2/@events.45" payload="OperationChoiceStatus operation(Operations op)"/>
    <messages source="/1/@processes.2/@events.47" target="/1/@processes.2/@events.48" payload="EList getNotes()"/>
    <messages source="/1/@processes.2/@events.49" target="/1/@processes.2/@events.50" payload="EList getNotes()"/>
    <messages source="/1/@processes.2/@events.51" target="/1/@processes.2/@events.52" payload="void display(String string)"/>
    <messages source="/1/@processes.2/@events.53" target="/1/@processes.2/@events.54" payload="void display(String string)"/>
    <messages source="/1/@processes.2/@events.55" target="/1/@processes.1/@events.36" payload="OperationChoiceStatus operation(Operations op)"/>
    <messages source="/1/@processes.1/@events.38" target="/1/@processes.2/@events.56" payload="WithdrawMoneyStatus withdraw(int i)"/>
    <messages source="/1/@processes.2/@events.57" target="/1/@processes.2/@events.58" payload="PhysicalBankCard getInserted()"/>
    <messages source="/1/@processes.2/@events.59" target="/1/@processes.2/@events.60" payload="PhysicalBankCard getInserted()"/>
    <messages source="/1/@processes.2/@events.61" target="/1/@processes.2/@events.62" payload="EList getNotes()"/>
    <messages source="/1/@processes.2/@events.63" target="/1/@processes.2/@events.64" payload="EList getNotes()"/>
    <messages source="/1/@processes.2/@events.65" target="/1/@processes.2/@events.66" payload="ATMController getController()"/>
    <messages source="/1/@processes.2/@events.67" target="/1/@processes.2/@events.68" payload="ATMController getController()"/>
    <messages source="/1/@processes.2/@events.69" target="/1/@processes.3/@events.57" payload="WithdrawMoneyStatus withdrawMoney(int amount)"/>
    <messages source="/1/@processes.3/@events.58" target="/1/@processes.3/@events.59" payload="int getCurrentCardNum()"/>
    <messages source="/1/@processes.3/@events.60" target="/1/@processes.3/@events.61" payload="int getCurrentCardNum()"/>
    <messages source="/1/@processes.3/@events.62" target="/1/@processes.3/@events.63" payload="EMap getSessions()"/>
    <messages source="/1/@processes.3/@events.64" target="/1/@processes.3/@events.65" payload="EMap getSessions()"/>
    <messages source="/1/@processes.3/@events.66" target="/1/@processes.17/@events.24" payload="int getHash()"/>
    <messages source="/1/@processes.17/@events.25" target="/1/@processes.3/@events.67" payload="int getHash()"/>
    <messages source="/1/@processes.3/@events.68" target="/1/@processes.17/@events.26" payload="Integer getKey()"/>
    <messages source="/1/@processes.17/@events.27" target="/1/@processes.17/@events.28" payload="Integer getTypedKey()"/>
    <messages source="/1/@processes.17/@events.29" target="/1/@processes.17/@events.30" payload="Integer getTypedKey()"/>
    <messages source="/1/@processes.17/@events.31" target="/1/@processes.3/@events.69" payload="Integer getKey()"/>
    <messages source="/1/@processes.3/@events.70" target="/1/@processes.17/@events.32" payload="Session getValue()"/>
    <messages source="/1/@processes.17/@events.33" target="/1/@processes.17/@events.34" payload="Session getTypedValue()"/>
    <messages source="/1/@processes.17/@events.35" target="/1/@processes.17/@events.36" payload="Session getTypedValue()"/>
    <messages source="/1/@processes.17/@events.37" target="/1/@processes.3/@events.71" payload="Session getValue()"/>
    <messages source="/1/@processes.3/@events.72" target="/1/@processes.3/@events.73" payload="BankGateway getGateway()"/>
    <messages source="/1/@processes.3/@events.74" target="/1/@processes.3/@events.75" payload="BankGateway getGateway()"/>
    <messages source="/1/@processes.3/@events.76" target="/1/@processes.4/@events.42" payload="WithdrawMoneyStatus withdraw(int amount, Session session)"/>
    <messages source="/1/@processes.4/@events.43" target="/1/@processes.15/@events.24" payload="int getHash()"/>
    <messages source="/1/@processes.15/@events.25" target="/1/@processes.4/@events.44" payload="int getHash()"/>
    <messages source="/1/@processes.4/@events.45" target="/1/@processes.15/@events.26" payload="Session getKey()"/>
    <messages source="/1/@processes.15/@events.27" target="/1/@processes.15/@events.28" payload="Session getTypedKey()"/>
    <messages source="/1/@processes.15/@events.29" target="/1/@processes.15/@events.30" payload="Session getTypedKey()"/>
    <messages source="/1/@processes.15/@events.31" target="/1/@processes.4/@events.46" payload="Session getKey()"/>
    <messages source="/1/@processes.4/@events.47" target="/1/@processes.15/@events.32" payload="AccountMngr getValue()"/>
    <messages source="/1/@processes.15/@events.33" target="/1/@processes.15/@events.34" payload="AccountMngr getTypedValue()"/>
    <messages source="/1/@processes.15/@events.35" target="/1/@processes.15/@events.36" payload="AccountMngr getTypedValue()"/>
    <messages source="/1/@processes.15/@events.37" target="/1/@processes.4/@events.48" payload="AccountMngr getValue()"/>
    <messages source="/1/@processes.4/@events.49" target="/1/@processes.16/@events.24" payload="int getHash()"/>
    <messages source="/1/@processes.16/@events.25" target="/1/@processes.4/@events.50" payload="int getHash()"/>
    <messages source="/1/@processes.4/@events.51" target="/1/@processes.16/@events.26" payload="Session getKey()"/>
    <messages source="/1/@processes.16/@events.27" target="/1/@processes.16/@events.28" payload="Session getTypedKey()"/>
    <messages source="/1/@processes.16/@events.29" target="/1/@processes.16/@events.30" payload="Session getTypedKey()"/>
    <messages source="/1/@processes.16/@events.31" target="/1/@processes.4/@events.52" payload="Session getKey()"/>
    <messages source="/1/@processes.4/@events.53" target="/1/@processes.16/@events.32" payload="SessionState setValue(SessionState value)"/>
    <messages source="/1/@processes.16/@events.33" target="/1/@processes.16/@events.34" payload="SessionState getValue()"/>
    <messages source="/1/@processes.16/@events.35" target="/1/@processes.16/@events.36" payload="SessionState getTypedValue()"/>
    <messages source="/1/@processes.16/@events.37" target="/1/@processes.16/@events.38" payload="SessionState getTypedValue()"/>
    <messages source="/1/@processes.16/@events.39" target="/1/@processes.16/@events.40" payload="SessionState getValue()"/>
    <messages source="/1/@processes.16/@events.41" target="/1/@processes.16/@events.42" payload="void setTypedValue(SessionState newValue)"/>
    <messages source="/1/@processes.16/@events.43" target="/1/@processes.16/@events.44" payload="void setTypedValue(SessionState newValue)"/>
    <messages source="/1/@processes.16/@events.45" target="/1/@processes.4/@events.54" payload="SessionState setValue(SessionState value)"/>
    <messages source="/1/@processes.4/@events.55" target="/1/@processes.5/@events.50" payload="WithdrawMoneyStatus withdraw(int amount, Session session)"/>
    <messages source="/1/@processes.5/@events.51" target="/1/@processes.5/@events.52" payload="EMap getOpenedSessions()"/>
    <messages source="/1/@processes.5/@events.53" target="/1/@processes.5/@events.54" payload="EMap getOpenedSessions()"/>
    <messages source="/1/@processes.5/@events.55" target="/1/@processes.14/@events.24" payload="int getHash()"/>
    <messages source="/1/@processes.14/@events.25" target="/1/@processes.5/@events.56" payload="int getHash()"/>
    <messages source="/1/@processes.5/@events.57" target="/1/@processes.14/@events.26" payload="Session getKey()"/>
    <messages source="/1/@processes.14/@events.27" target="/1/@processes.14/@events.28" payload="Session getTypedKey()"/>
    <messages source="/1/@processes.14/@events.29" target="/1/@processes.14/@events.30" payload="Session getTypedKey()"/>
    <messages source="/1/@processes.14/@events.31" target="/1/@processes.5/@events.58" payload="Session getKey()"/>
    <messages source="/1/@processes.5/@events.59" target="/1/@processes.13/@events.20" payload="Account getAccount()"/>
    <messages source="/1/@processes.13/@events.21" target="/1/@processes.5/@events.60" payload="Account getAccount()"/>
    <messages source="/1/@processes.5/@events.61" target="/1/@processes.10/@events.36" payload="int getBalance()"/>
    <messages source="/1/@processes.10/@events.37" target="/1/@processes.5/@events.62" payload="int getBalance()"/>
    <messages source="/1/@processes.5/@events.63" target="/1/@processes.13/@events.22" payload="void withdraw(int amount)"/>
    <messages source="/1/@processes.13/@events.23" target="/1/@processes.10/@events.38" payload="void withdraw(int amount)"/>
    <messages source="/1/@processes.10/@events.39" target="/1/@processes.13/@events.24" payload="void withdraw(int amount)"/>
    <messages source="/1/@processes.13/@events.25" target="/1/@processes.5/@events.64" payload="void withdraw(int amount)"/>
    <messages source="/1/@processes.5/@events.65" target="/1/@processes.5/@events.66" payload="EMap getWithdrawls()"/>
    <messages source="/1/@processes.5/@events.67" target="/1/@processes.5/@events.68" payload="EMap getWithdrawls()"/>
    <messages source="/1/@processes.5/@events.69" target="/1/@processes.6/@events.26" payload="EObject create(EClass eClass)"/>
    <messages source="/1/@processes.6/@events.27" target="/1/@processes.6/@events.28" payload="Entry createSessionToIntegerMap()"/>
    <messages source="/1/@processes.6/@events.29" target="/1/@processes.6/@events.30" payload="Entry createSessionToIntegerMap()"/>
    <messages source="/1/@processes.6/@events.31" target="/1/@processes.5/@events.70" payload="EObject create(EClass eClass)"/>
    <messages source="/1/@processes.5/@events.71" target="/1/@processes.18/@events.0" payload="void setHash(int hash)"/>
    <messages source="/1/@processes.18/@events.1" target="/1/@processes.5/@events.72" payload="void setHash(int hash)"/>
    <messages source="/1/@processes.5/@events.73" target="/1/@processes.18/@events.2" payload="void setKey(Session key)"/>
    <messages source="/1/@processes.18/@events.3" target="/1/@processes.18/@events.4" payload="void setTypedKey(Session newKey)"/>
    <messages source="/1/@processes.18/@events.5" target="/1/@processes.18/@events.6" payload="void setTypedKey(Session newKey)"/>
    <messages source="/1/@processes.18/@events.7" target="/1/@processes.5/@events.74" payload="void setKey(Session key)"/>
    <messages source="/1/@processes.5/@events.75" target="/1/@processes.18/@events.8" payload="Integer setValue(Integer value)"/>
    <messages source="/1/@processes.18/@events.9" target="/1/@processes.18/@events.10" payload="Integer getValue()"/>
    <messages source="/1/@processes.18/@events.11" target="/1/@processes.18/@events.12" payload="Integer getTypedValue()"/>
    <messages source="/1/@processes.18/@events.13" target="/1/@processes.18/@events.14" payload="Integer getTypedValue()"/>
    <messages source="/1/@processes.18/@events.15" target="/1/@processes.18/@events.16" payload="Integer getValue()"/>
    <messages source="/1/@processes.18/@events.17" target="/1/@processes.18/@events.18" payload="void setTypedValue(Integer newValue)"/>
    <messages source="/1/@processes.18/@events.19" target="/1/@processes.18/@events.20" payload="void setTypedValue(Integer newValue)"/>
    <messages source="/1/@processes.18/@events.21" target="/1/@processes.5/@events.76" payload="Integer setValue(Integer value)"/>
    <messages source="/1/@processes.5/@events.77" target="/1/@processes.18/@events.22" payload="int getHash()"/>
    <messages source="/1/@processes.18/@events.23" target="/1/@processes.5/@events.78" payload="int getHash()"/>
    <messages source="/1/@processes.5/@events.79" target="/1/@processes.4/@events.56" payload="WithdrawMoneyStatus withdraw(int amount, Session session)"/>
    <messages source="/1/@processes.4/@events.57" target="/1/@processes.3/@events.77" payload="WithdrawMoneyStatus withdraw(int amount, Session session)"/>
    <messages source="/1/@processes.3/@events.78" target="/1/@processes.3/@events.79" payload="void presentMoney(Integer amount)"/>
    <messages source="/1/@processes.3/@events.80" target="/1/@processes.3/@events.81" payload="HW getHw()"/>
    <messages source="/1/@processes.3/@events.82" target="/1/@processes.3/@events.83" payload="HW getHw()"/>
    <messages source="/1/@processes.3/@events.84" target="/1/@processes.2/@events.70" payload="void presentMoney(Integer amount)"/>
    <messages source="/1/@processes.2/@events.71" target="/1/@processes.3/@events.85" payload="void presentMoney(Integer amount)"/>
    <messages source="/1/@processes.3/@events.86" target="/1/@processes.3/@events.87" payload="void presentMoney(Integer amount)"/>
    <messages source="/1/@processes.3/@events.88" target="/1/@processes.2/@events.72" payload="WithdrawMoneyStatus withdrawMoney(int amount)"/>
    <messages source="/1/@processes.2/@events.74" target="/1/@processes.2/@events.75" payload="EList getReady()"/>
    <messages source="/1/@processes.2/@events.76" target="/1/@processes.2/@events.77" payload="EList getReady()"/>
    <messages source="/1/@processes.2/@events.78" target="/1/@processes.2/@events.79" payload="EList getNotes()"/>
    <messages source="/1/@processes.2/@events.80" target="/1/@processes.2/@events.81" payload="EList getNotes()"/>
    <messages source="/1/@processes.2/@events.82" target="/1/@processes.2/@events.83" payload="NotificationChain eInverseRemove(InternalEObject otherEnd, int featureID, NotificationChain msgs)"/>
    <messages source="/1/@processes.2/@events.84" target="/1/@processes.2/@events.85" payload="EList getNotes()"/>
    <messages source="/1/@processes.2/@events.86" target="/1/@processes.2/@events.87" payload="EList getNotes()"/>
    <messages source="/1/@processes.2/@events.88" target="/1/@processes.2/@events.89" payload="NotificationChain eInverseRemove(InternalEObject otherEnd, int featureID, NotificationChain msgs)"/>
    <messages source="/1/@processes.2/@events.90" target="/1/@processes.2/@events.91" payload="NotificationChain eInverseRemove(InternalEObject otherEnd, int featureID, NotificationChain msgs)"/>
    <messages source="/1/@processes.2/@events.92" target="/1/@processes.2/@events.93" payload="EList getNotes()"/>
    <messages source="/1/@processes.2/@events.94" target="/1/@processes.2/@events.95" payload="EList getNotes()"/>
    <messages source="/1/@processes.2/@events.96" target="/1/@processes.2/@events.97" payload="NotificationChain eInverseRemove(InternalEObject otherEnd, int featureID, NotificationChain msgs)"/>
    <messages source="/1/@processes.2/@events.98" target="/1/@processes.2/@events.99" payload="EList getNotes()"/>
    <messages source="/1/@processes.2/@events.100" target="/1/@processes.2/@events.101" payload="EList getNotes()"/>
    <messages source="/1/@processes.2/@events.102" target="/1/@processes.2/@events.103" payload="EList getReady()"/>
    <messages source="/1/@processes.2/@events.104" target="/1/@processes.2/@events.105" payload="EList getReady()"/>
    <messages source="/1/@processes.2/@events.106" target="/1/@processes.2/@events.107" payload="void display(String string)"/>
    <messages source="/1/@processes.2/@events.108" target="/1/@processes.2/@events.109" payload="void display(String string)"/>
    <messages source="/1/@processes.2/@events.110" target="/1/@processes.1/@events.39" payload="WithdrawMoneyStatus withdraw(int i)"/>
    <messages source="/1/@processes.1/@events.41" target="/1/@processes.1/@events.42" payload="boolean isTakeMoney()"/>
    <messages source="/1/@processes.1/@events.43" target="/1/@processes.1/@events.44" payload="boolean isTakeMoney()"/>
    <messages source="/1/@processes.1/@events.45" payload="WithdrawMoneyStatus withdraw(int amount)"/>
    <messages target="/1/@processes.1/@events.46" payload="void takeMoney()"/>
    <messages source="/1/@processes.1/@events.47" target="/1/@processes.1/@events.48" payload="EList getUses()"/>
    <messages source="/1/@processes.1/@events.49" target="/1/@processes.1/@events.50" payload="EList getUses()"/>
    <messages source="/1/@processes.1/@events.51" target="/1/@processes.1/@events.52" payload="EList getUses()"/>
    <messages source="/1/@processes.1/@events.53" target="/1/@processes.1/@events.54" payload="EList getUses()"/>
    <messages source="/1/@processes.1/@events.55" target="/1/@processes.1/@events.56" payload="EList getOwns()"/>
    <messages source="/1/@processes.1/@events.57" target="/1/@processes.1/@events.58" payload="EList getOwns()"/>
    <messages source="/1/@processes.1/@events.59" target="/1/@processes.1/@events.60" payload="EList getUses()"/>
    <messages source="/1/@processes.1/@events.61" target="/1/@processes.1/@events.62" payload="EList getUses()"/>
    <messages source="/1/@processes.1/@events.63" target="/1/@processes.2/@events.111" payload="EList takeMoney()"/>
    <messages source="/1/@processes.2/@events.112" target="/1/@processes.2/@events.113" payload="EList getReady()"/>
    <messages source="/1/@processes.2/@events.114" target="/1/@processes.2/@events.115" payload="EList getReady()"/>
    <messages source="/1/@processes.2/@events.116" target="/1/@processes.2/@events.117" payload="EList getReady()"/>
    <messages source="/1/@processes.2/@events.118" target="/1/@processes.2/@events.119" payload="EList getReady()"/>
    <messages source="/1/@processes.2/@events.120" target="/1/@processes.19/@events.0" payload="void takeMoney()"/>
    <messages source="/1/@processes.19/@events.1" target="/1/@processes.2/@events.121" payload="void takeMoney()"/>
    <messages source="/1/@processes.2/@events.122" target="/1/@processes.20/@events.0" payload="void takeMoney()"/>
    <messages source="/1/@processes.20/@events.1" target="/1/@processes.2/@events.123" payload="void takeMoney()"/>
    <messages source="/1/@processes.2/@events.124" target="/1/@processes.2/@events.125" payload="ATMController getController()"/>
    <messages source="/1/@processes.2/@events.126" target="/1/@processes.2/@events.127" payload="ATMController getController()"/>
    <messages source="/1/@processes.2/@events.128" target="/1/@processes.2/@events.129" payload="EList getReady()"/>
    <messages source="/1/@processes.2/@events.130" target="/1/@processes.2/@events.131" payload="EList getReady()"/>
    <messages source="/1/@processes.2/@events.132" target="/1/@processes.3/@events.89" payload="void takeMoney(EList money)"/>
    <messages source="/1/@processes.3/@events.90" target="/1/@processes.2/@events.133" payload="void takeMoney(EList money)"/>
    <messages source="/1/@processes.2/@events.134" target="/1/@processes.2/@events.135" payload="EList getReady()"/>
    <messages source="/1/@processes.2/@events.136" target="/1/@processes.2/@events.137" payload="EList getReady()"/>
    <messages source="/1/@processes.2/@events.138" target="/1/@processes.1/@events.64" payload="EList takeMoney()"/>
    <messages source="/1/@processes.1/@events.65" payload="void takeMoney()"/>
  </eu.petur:Trace>
  <eu.petur:State type="TARGET">
    <object xsi:type="dk.ingi.petur.bankingsystem:NaturalPerson" uses="/2/@object.2" name="Ekkart">
      <availableCards number="1" issuer="/2/@object.7"/>
    </object>
    <object xsi:type="dk.ingi.petur.bankingsystem:NaturalPerson" uses="/2/@object.3" name="Lom">
      <availableCards number="2" issuer="/2/@object.7"/>
      <owns/>
      <owns/>
    </object>
    <object xsi:type="dk.ingi.petur.bankingsystem:HW" controller="/2/@object.4" showCardOn1InvalidPin="true">
      <notes/>
      <notes/>
    </object>
    <object xsi:type="dk.ingi.petur.bankingsystem:HW" controller="/2/@object.5" showCardOn1InvalidPin="true">
      <inserted number="3" issuer="/2/@object.7"/>
    </object>
    <object xsi:type="dk.ingi.petur.bankingsystem:ATMController" hw="/2/@object.2" gateway="/2/@object.6"/>
    <object xsi:type="dk.ingi.petur.bankingsystem:ATMController" hw="/2/@object.3" gateway="/2/@object.6" currentCardNum="3" currentIssuer="/2/@object.7" nbTentatives="1">
      <sessions value="/2/@object.7/@sessions.0" key="3"/>
    </object>
    <object xsi:type="dk.ingi.petur.bankingsystem:BankGateway" ATMs="/2/@object.4 /2/@object.5" accountMngrs="/2/@object.7">
      <sessions key="/2/@object.7/@sessions.0" value="/2/@object.7"/>
      <sessionsState key="/2/@object.7/@sessions.0" value="ONGOING_OPERATION"/>
    </object>
    <object xsi:type="dk.ingi.petur.bankingsystem:AccountMngr" gateway="/2/@object.6">
      <customers accounts="/2/@object.7/@accounts.0" natural="/2/@object.0" id="2" name="Ekkart Kindler"/>
      <customers accounts="/2/@object.7/@accounts.1" natural="/2/@object.1" name="Lom Hillah"/>
      <accounts balance="2" holder="/2/@object.7/@customers.0">
        <cards owner="/2/@object.7/@customers.0" number="1" physical="/2/@object.0/@availableCards.0"/>
      </accounts>
      <accounts holder="/2/@object.7/@customers.1">
        <cards owner="/2/@object.7/@customers.1" number="2" physical="/2/@object.1/@availableCards.0"/>
        <cards owner="/2/@object.7/@customers.1" number="3" physical="/2/@object.3/@inserted"/>
      </accounts>
      <sessions card="/2/@object.7/@accounts.1/@cards.1" ATM="/2/@object.5" account="/2/@object.7/@accounts.1">
        <openingStatus session="/2/@object.7/@sessions.0"/>
      </sessions>
      <idleSessions/>
      <openedSessions key="/2/@object.7/@sessions.0" value="/2/@object.5"/>
      <withdrawls key="/2/@object.7/@sessions.0" value="2"/>
    </object>
    <object xsi:type="ecore:EFactory"/>
  </eu.petur:State>
</xmi:XMI>
